calc.vcd
$date
  Wed Apr 25 18:32:24 2018
$end
$version
  GHDL v0
$end
$timescale
  1 fs
$end
$var reg 8 ! i[7:0] $end
$var reg 8 " poop[7:0] $end
$var reg 8 # poopo1[7:0] $end
$var reg 8 $ poopo2[7:0] $end
$var reg 8 % pwb[7:0] $end
$var reg 8 & plb[7:0] $end
$var reg 8 ' pp[7:0] $end
$var reg 2 ( poopr1[1:0] $end
$var reg 2 ) poopr2[1:0] $end
$var reg 2 * prd[1:0] $end
$var reg 1 + clk $end
$var reg 1 , pre $end
$var reg 1 - pout $end
$var reg 1 . prt $end
$scope module c1 $end
$var reg 8 / i[7:0] $end
$var reg 1 0 clk $end
$var reg 8 1 poop[7:0] $end
$var reg 8 2 poopo1[7:0] $end
$var reg 8 3 poopo2[7:0] $end
$var reg 2 4 poopr1[1:0] $end
$var reg 2 5 poopr2[1:0] $end
$var reg 2 6 prd[1:0] $end
$var reg 8 7 pwb[7:0] $end
$var reg 1 8 pre $end
$var reg 1 9 pout $end
$var reg 8 : pp[7:0] $end
$var reg 8 ; plb[7:0] $end
$var reg 1 < prt $end
$var reg 2 = r1[1:0] $end
$var reg 2 > r2[1:0] $end
$var reg 2 ? rd[1:0] $end
$var reg 4 @ imm[3:0] $end
$var reg 1 A aluskip $end
$var reg 1 B pt $end
$var reg 1 C dispbeq $end
$var reg 1 D regwrite $end
$var reg 1 E addsub $end
$var reg 1 F load $end
$var reg 8 G o1[7:0] $end
$var reg 8 H o2[7:0] $end
$var reg 8 I ext[7:0] $end
$var reg 8 J wb[7:0] $end
$var reg 1 K f $end
$var reg 8 L sum[7:0] $end
$var reg 8 M aluo[7:0] $end
$var reg 8 N p[7:0] $end
$var reg 8 O lb[7:0] $end
$var reg 4 P skipval[3:0] $end
$var reg 1 Q skipcontrol $end
$var reg 1 R outskip $end
$var reg 4 S inskip[3:0] $end
$var reg 4 T postskip[3:0] $end
$var reg 1 U renable $end
$scope module con $end
$var reg 8 V i[7:0] $end
$var reg 1 W aluskip $end
$var reg 1 X print $end
$var reg 1 Y dispbeq $end
$var reg 1 Z regwrite $end
$var reg 1 [ addsub $end
$var reg 1 \ load $end
$var reg 4 ] s[3:0] $end
$upscope $end
$scope module id $end
$var reg 8 ^ i[7:0] $end
$var reg 1 _ consig $end
$var reg 2 ` r1[1:0] $end
$var reg 2 a r2[1:0] $end
$var reg 2 b rd[1:0] $end
$var reg 4 c imm[3:0] $end
$var reg 2 d s1[1:0] $end
$var reg 4 e s2[3:0] $end
$upscope $end
$scope module se $end
$var reg 4 f i[3:0] $end
$var reg 8 g o[7:0] $end
$upscope $end
$scope module reg $end
$var reg 2 h r1[1:0] $end
$var reg 2 i r2[1:0] $end
$var reg 2 j rd[1:0] $end
$var reg 8 k wb[7:0] $end
$var reg 1 l clk $end
$var reg 1 m enable $end
$var reg 8 n o1[7:0] $end
$var reg 8 o o2[7:0] $end
$var reg 8 p v0[7:0] $end
$var reg 8 q v1[7:0] $end
$var reg 8 r v2[7:0] $end
$var reg 8 s v3[7:0] $end
$var reg 8 t t0[7:0] $end
$var reg 8 u t1[7:0] $end
$var reg 8 v t2[7:0] $end
$var reg 8 w t3[7:0] $end
$scope module ff0 $end
$var reg 8 x d[7:0] $end
$var reg 1 y clk $end
$var reg 1 z enable $end
$var reg 8 { q[7:0] $end
$upscope $end
$scope module ff1 $end
$var reg 8 | d[7:0] $end
$var reg 1 } clk $end
$var reg 1 !" enable $end
$var reg 8 "" q[7:0] $end
$upscope $end
$scope module ff2 $end
$var reg 8 #" d[7:0] $end
$var reg 1 $" clk $end
$var reg 1 %" enable $end
$var reg 8 &" q[7:0] $end
$upscope $end
$scope module ff3 $end
$var reg 8 '" d[7:0] $end
$var reg 1 (" clk $end
$var reg 1 )" enable $end
$var reg 8 *" q[7:0] $end
$upscope $end
$upscope $end
$scope module alu $end
$var reg 8 +" a[7:0] $end
$var reg 8 ," b[7:0] $end
$var reg 1 -" mode $end
$var reg 1 ." flow $end
$var reg 8 /" s[7:0] $end
$var reg 8 0" c[7:0] $end
$scope module fa1 $end
$var reg 1 1" i1 $end
$var reg 1 2" i2 $end
$var reg 1 3" m $end
$var reg 1 4" cin $end
$var reg 1 5" sum $end
$var reg 1 6" cout $end
$var reg 1 7" x $end
$upscope $end
$scope module fa2 $end
$var reg 1 8" i1 $end
$var reg 1 9" i2 $end
$var reg 1 :" m $end
$var reg 1 ;" cin $end
$var reg 1 <" sum $end
$var reg 1 =" cout $end
$var reg 1 >" x $end
$upscope $end
$scope module fa3 $end
$var reg 1 ?" i1 $end
$var reg 1 @" i2 $end
$var reg 1 A" m $end
$var reg 1 B" cin $end
$var reg 1 C" sum $end
$var reg 1 D" cout $end
$var reg 1 E" x $end
$upscope $end
$scope module fa4 $end
$var reg 1 F" i1 $end
$var reg 1 G" i2 $end
$var reg 1 H" m $end
$var reg 1 I" cin $end
$var reg 1 J" sum $end
$var reg 1 K" cout $end
$var reg 1 L" x $end
$upscope $end
$scope module fa5 $end
$var reg 1 M" i1 $end
$var reg 1 N" i2 $end
$var reg 1 O" m $end
$var reg 1 P" cin $end
$var reg 1 Q" sum $end
$var reg 1 R" cout $end
$var reg 1 S" x $end
$upscope $end
$scope module fa6 $end
$var reg 1 T" i1 $end
$var reg 1 U" i2 $end
$var reg 1 V" m $end
$var reg 1 W" cin $end
$var reg 1 X" sum $end
$var reg 1 Y" cout $end
$var reg 1 Z" x $end
$upscope $end
$scope module fa7 $end
$var reg 1 [" i1 $end
$var reg 1 \" i2 $end
$var reg 1 ]" m $end
$var reg 1 ^" cin $end
$var reg 1 _" sum $end
$var reg 1 `" cout $end
$var reg 1 a" x $end
$upscope $end
$scope module fa8 $end
$var reg 1 b" i1 $end
$var reg 1 c" i2 $end
$var reg 1 d" m $end
$var reg 1 e" cin $end
$var reg 1 f" sum $end
$var reg 1 g" cout $end
$var reg 1 h" x $end
$upscope $end
$upscope $end
$scope module p1 $end
$var reg 8 i" i[7:0] $end
$var reg 1 j" en $end
$var reg 1 k" clk $end
$upscope $end
$scope module sr $end
$var reg 4 l" i[3:0] $end
$var reg 1 m" i_shift_in $end
$var reg 2 n" sel[1:0] $end
$var reg 1 o" clock $end
$var reg 1 p" enable $end
$var reg 4 q" o[3:0] $end
$upscope $end
$upscope $end
$enddefinitions $end
#0
bUUUUUUUU !
bUUUUUUUU "
bUUUUUUUU #
bUUUUUUUU $
bUUUUUUUU %
bUUUUUUUU &
bUUUUUUUU '
bUU (
bUU )
bUU *
0+
0,
0-
U.
bUUUUUUUU /
00
bUUUUUUUU 1
bUUUUUUUU 2
bUUUUUUUU 3
bUU 4
bUU 5
bUU 6
bUUUUUUUU 7
08
09
bUUUUUUUU :
bUUUUUUUU ;
U<
bUU =
bUU >
bUU ?
bUUUU @
UA
UB
UC
UD
UE
UF
bUUUUUUUU G
bUUUUUUUU H
bUUUUUUUU I
bUUUUUUUU J
UK
bUUUUUUUU L
bUUUUUUUU M
bUUUUUUUU N
bUUUUUUUU O
bUUUU P
UQ
0R
bUUUU S
bUUUU T
0U
bUUUUUUUU V
UW
UX
UY
UZ
U[
U\
bUUUU ]
bUUUUUUUU ^
U_
bUU `
bUU a
bUU b
bUUUU c
bUU d
bUUUU e
bUUUU f
bUUUUUUUU g
bUU h
bUU i
bUU j
bUUUUUUUU k
0l
Um
bUUUUUUUU n
bUUUUUUUU o
bUUUUUUUU p
bUUUUUUUU q
bUUUUUUUU r
bUUUUUUUU s
bUUUUUUUU t
bUUUUUUUU u
bUUUUUUUU v
bUUUUUUUU w
bUUUUUUUU x
0y
Uz
bUUUUUUUU {
bUUUUUUUU |
0}
U!"
bUUUUUUUU ""
bUUUUUUUU #"
0$"
U%"
bUUUUUUUU &"
bUUUUUUUU '"
0("
U)"
bUUUUUUUU *"
bUUUUUUUU +"
bUUUUUUUU ,"
U-"
U."
bUUUUUUUU /"
bUUUUUUUU 0"
U1"
U2"
U3"
U4"
U5"
U6"
U7"
U8"
U9"
U:"
U;"
U<"
U="
U>"
U?"
U@"
UA"
UB"
UC"
UD"
UE"
UF"
UG"
UH"
UI"
UJ"
UK"
UL"
UM"
UN"
UO"
UP"
UQ"
UR"
US"
UT"
UU"
UV"
UW"
UX"
UY"
UZ"
U["
U\"
U]"
U^"
U_"
U`"
Ua"
Ub"
Uc"
Ud"
Ue"
Uf"
Ug"
Uh"
bUUUUUUUU i"
Uj"
0k"
bUUUU l"
0m"
b10 n"
0o"
1p"
bUUUU q"
#5000000
b10000001 !
b00000001 %
b00 (
b00 )
b00 *
1+
1,
0.
b10000001 /
10
b00 4
b00 5
b00 6
b00000001 7
18
0<
b00 =
b00 >
b00 ?
b0001 @
1A
0B
0C
1D
1E
0F
b00000001 I
b00000001 J
b0001 S
b0UUU T
1U
b10000001 V
1W
0X
0Y
1Z
1[
0\
b1100 ]
b10000001 ^
0_
b00 `
b00 a
b00 b
b0001 c
b00 d
b0001 e
b0001 f
b00000001 g
b00 h
b00 i
b00 j
b00000001 k
1l
1m
b00000001 p
b00000001 x
1y
1z
1}
1!"
1$"
1%"
1("
1)"
1-"
13"
14"
1:"
1A"
1H"
1O"
1V"
1]"
1d"
0j"
1k"
b0001 l"
1o"
b0UUU q"
#10000000
0+
0,
00
08
0U
0l
0y
0}
0$"
0("
0k"
0o"
#15000000
b10010010 !
bUUUUUUUU "
bUUUUUUUU #
b00000001 $
b00000010 %
bUUUUUUUU &
b01 (
b01 *
1+
1,
b10010010 /
10
bUUUUUUUU 1
bUUUUUUUU 2
b00000001 3
b01 4
b01 6
b00000010 7
18
bUUUUUUUU ;
b01 =
b01 ?
b0010 @
bUUUUUUUU G
b00000001 H
b00000010 I
b00000010 J
bUUUUUUUU M
bUUUUUUUU O
b0000 P
UQ
b0010 S
b0000 T
1U
b10010010 V
b1000 ]
b10010010 ^
b01 `
b01 b
b0010 c
b01 d
b0010 e
b0010 f
b00000010 g
b01 h
b01 j
b00000010 k
1l
bUUUUUUUU n
b00000001 o
b00000010 q
b00000001 t
1y
b00000001 {
b00000010 |
1}
1$"
1("
bUUUUUUUU +"
b00000001 ,"
bUUUUUUUU 0"
U1"
12"
U6"
07"
U8"
09"
U;"
U="
1>"
U?"
0@"
UB"
UD"
1E"
UF"
0G"
UI"
UK"
1L"
UM"
0N"
UP"
UR"
1S"
UT"
0U"
UW"
UY"
1Z"
U["
0\"
U^"
U`"
1a"
Ub"
0c"
Ue"
Ug"
1h"
1k"
b0010 l"
1o"
b0000 q"
#20000000
0+
0,
00
08
0U
0l
0y
0}
0$"
0("
0k"
0o"
#25000000
b00100001 !
b00000011 "
b00000001 #
b00000010 $
b00000011 %
b00000011 &
b00 (
b01 )
b10 *
1+
1,
b00100001 /
10
b00000011 1
b00000001 2
b00000010 3
b00 4
b01 5
b10 6
b00000011 7
18
b00000011 ;
b00 =
b01 >
b10 ?
b0001 @
0A
0E
1F
b00000001 G
b00000010 H
b00000001 I
b00000011 J
0K
b00000011 L
b00000011 M
b00000011 O
0Q
b0001 S
b0001 T
1U
b00100001 V
0W
0[
1\
b0000 ]
b00100001 ^
b00 `
b01 a
b10 b
b0001 c
b10 d
b0001 e
b0001 f
b00000001 g
b00 h
b01 i
b10 j
b00000011 k
1l
b00000001 n
b00000010 o
b00000011 r
b00000010 u
1y
1}
b00000010 ""
b00000011 #"
1$"
1("
b00000001 +"
b00000010 ,"
0-"
0."
b00000011 /"
b00000000 0"
11"
02"
03"
04"
15"
06"
07"
08"
19"
0:"
0;"
1<"
0="
1>"
0?"
0A"
0B"
0C"
0D"
0E"
0F"
0H"
0I"
0J"
0K"
0L"
0M"
0O"
0P"
0Q"
0R"
0S"
0T"
0V"
0W"
0X"
0Y"
0Z"
0["
0]"
0^"
0_"
0`"
0a"
0b"
0d"
0e"
0f"
0g"
0h"
1k"
b0001 l"
1o"
b0001 q"
#30000000
0+
0,
00
08
0U
0l
0y
0}
0$"
0("
0k"
0o"
#35000000
b11000010 !
b00000011 "
b00000011 #
b00000001 $
b00000010 %
b00000011 '
b10 (
b00 )
b00 *
1+
1,
1.
b11000010 /
10
b00000011 1
b00000011 2
b00000001 3
b10 4
b00 5
b00 6
b00000010 7
18
b00000011 :
1<
b10 =
b00 >
b00 ?
b0010 @
1A
1B
1C
0D
1E
0F
b00000011 G
b00000001 H
b00000010 I
b00000010 J
0K
b00000010 L
b00000011 M
b00000011 N
b0010 S
b0000 T
1U
b11000010 V
1W
1X
1Y
0Z
1[
0\
b0111 ]
b11000010 ^
1_
b10 `
b00 a
b00 b
b0010 c
b10 d
b0010 e
b0010 f
b00000010 g
b10 h
b00 i
b00 j
b00000010 k
1l
0m
b00000011 n
b00000001 o
b00000010 p
b00000011 v
b00000010 x
1y
0z
1}
0!"
1$"
0%"
b00000011 &"
1("
0)"
b00000011 +"
b00000001 ,"
1-"
0."
b00000010 /"
b11111111 0"
12"
13"
14"
05"
16"
07"
18"
09"
1:"
1;"
1<"
1="
1>"
1A"
1B"
0C"
1D"
1E"
1H"
1I"
0J"
1K"
1L"
1O"
1P"
0Q"
1R"
1S"
1V"
1W"
0X"
1Y"
1Z"
1]"
1^"
0_"
1`"
1a"
1d"
1e"
0f"
1g"
1h"
b00000011 i"
1j"
1k"
b0010 l"
1o"
b0000 q"
#40000000
0+
0,
00
08
0U
0l
0y
0}
0$"
0("
0k"
0o"
#45000000
b10000001 !
b00000001 "
b00000001 #
b00000001 %
b00000001 &
b00 (
1+
1,
0.
b10000001 /
10
b00000001 1
b00000001 2
b00 4
b00000001 7
18
b00000001 ;
0<
b00 =
b0001 @
0B
0C
1D
b00000001 G
b00000001 I
b00000001 J
0K
b00000000 L
b00000001 M
b00000001 O
b0001 S
b0001 T
1U
b10000001 V
0X
0Y
1Z
b1100 ]
b10000001 ^
0_
b00 `
b0001 c
b00 d
b0001 e
b0001 f
b00000001 g
b00 h
b00000001 k
1l
1m
b00000001 n
b00000001 p
b00000001 x
1y
1z
1}
1!"
1$"
1%"
1("
1)"
b00000001 +"
0."
b00000000 /"
b11111111 0"
11"
05"
16"
08"
1;"
0<"
1="
1B"
0C"
1D"
1I"
0J"
1K"
1P"
0Q"
1R"
1W"
0X"
1Y"
1^"
0_"
1`"
1e"
0f"
1g"
0j"
1k"
b0001 l"
1o"
b0001 q"
#50000000
0+
0,
00
08
0U
0l
0y
0}
0$"
0("
0k"
0o"
#55000000
1+
1,
10
18
b0000 T
1U
1l
1y
1}
1$"
1("
1k"
1o"
b0000 q"
#60000000
0+
0,
00
08
0U
0l
0y
0}
0$"
0("
0k"
0o"
#65000000
1+
1,
10
18
1U
1l
1y
1}
1$"
1("
1k"
1o"
#70000000
0+
0,
00
08
0U
0l
0y
0}
0$"
0("
0k"
0o"
#75000000
1+
1,
10
18
1U
1l
1y
1}
1$"
1("
1k"
1o"
#80000000
0+
0,
00
08
0U
0l
0y
0}
0$"
0("
0k"
0o"
#85000000
1+
1,
10
18
1U
1l
1y
1}
1$"
1("
1k"
1o"
#90000000
0+
0,
00
08
0U
0l
0y
0}
0$"
0("
0k"
0o"
#95000000
1+
1,
10
18
1U
1l
1y
1}
1$"
1("
1k"
1o"
#100000000
0+
0,
00
08
0U
0l
0y
0}
0$"
0("
0k"
0o"
#105000000
1+
1,
10
18
1U
1l
1y
1}
1$"
1("
1k"
1o"
#110000000
0+
0,
00
08
0U
0l
0y
0}
0$"
0("
0k"
0o"
#115000000
1+
1,
10
18
1U
1l
1y
1}
1$"
1("
1k"
1o"
#120000000
0+
0,
00
08
0U
0l
0y
0}
0$"
0("
0k"
0o"
#125000000
1+
1,
10
18
1U
1l
1y
1}
1$"
1("
1k"
1o"
#130000000
0+
0,
00
08
0U
0l
0y
0}
0$"
0("
0k"
0o"
#135000000
1+
1,
10
18
1U
1l
1y
1}
1$"
1("
1k"
1o"
#140000000
0+
0,
00
08
0U
0l
0y
0}
0$"
0("
0k"
0o"
#145000000
1+
1,
10
18
1U
1l
1y
1}
1$"
1("
1k"
1o"
#150000000
0+
0,
00
08
0U
0l
0y
0}
0$"
0("
0k"
0o"
#155000000
1+
1,
10
18
1U
1l
1y
1}
1$"
1("
1k"
1o"
#160000000
0+
0,
00
08
0U
0l
0y
0}
0$"
0("
0k"
0o"
#165000000
1+
1,
10
18
1U
1l
1y
1}
1$"
1("
1k"
1o"
#170000000
0+
0,
00
08
0U
0l
0y
0}
0$"
0("
0k"
0o"
#175000000
1+
1,
10
18
1U
1l
1y
1}
1$"
1("
1k"
1o"
#180000000
0+
0,
00
08
0U
0l
0y
0}
0$"
0("
0k"
0o"
#185000000
1+
1,
10
18
1U
1l
1y
1}
1$"
1("
1k"
1o"
#190000000
0+
0,
00
08
0U
0l
0y
0}
0$"
0("
0k"
0o"
#195000000
1+
1,
10
18
1U
1l
1y
1}
1$"
1("
1k"
1o"
#200000000
0+
0,
00
08
0U
0l
0y
0}
0$"
0("
0k"
0o"
#205000000
1+
1,
10
18
1U
1l
1y
1}
1$"
1("
1k"
1o"
#210000000
0+
0,
00
08
0U
0l
0y
0}
0$"
0("
0k"
0o"
#215000000
1+
1,
10
18
1U
1l
1y
1}
1$"
1("
1k"
1o"
#220000000
0+
0,
00
08
0U
0l
0y
0}
0$"
0("
0k"
0o"
#225000000
1+
1,
10
18
1U
1l
1y
1}
1$"
1("
1k"
1o"
#230000000
0+
0,
00
08
0U
0l
0y
0}
0$"
0("
0k"
0o"
#235000000
1+
1,
10
18
1U
1l
1y
1}
1$"
1("
1k"
1o"
#240000000
0+
0,
00
08
0U
0l
0y
0}
0$"
0("
0k"
0o"
#245000000
1+
1,
10
18
1U
1l
1y
1}
1$"
1("
1k"
1o"
#250000000
0+
0,
00
08
0U
0l
0y
0}
0$"
0("
0k"
0o"
#255000000
1+
1,
10
18
1U
1l
1y
1}
1$"
1("
1k"
1o"
#260000000
0+
0,
00
08
0U
0l
0y
0}
0$"
0("
0k"
0o"
#265000000
1+
1,
10
18
1U
1l
1y
1}
1$"
1("
1k"
1o"
#270000000
0+
0,
00
08
0U
0l
0y
0}
0$"
0("
0k"
0o"
#275000000
1+
1,
10
18
1U
1l
1y
1}
1$"
1("
1k"
1o"
#280000000
0+
0,
00
08
0U
0l
0y
0}
0$"
0("
0k"
0o"
#285000000
1+
1,
10
18
1U
1l
1y
1}
1$"
1("
1k"
1o"
#290000000
0+
0,
00
08
0U
0l
0y
0}
0$"
0("
0k"
0o"
#295000000
1+
1,
10
18
1U
1l
1y
1}
1$"
1("
1k"
1o"
