calc.vcd
$date
  Thu Apr 26 17:49:29 2018
$end
$version
  GHDL v0
$end
$timescale
  1 fs
$end
$var reg 8 ! i[7:0] $end
$var reg 8 " poop[7:0] $end
$var reg 8 # poopo1[7:0] $end
$var reg 8 $ poopo2[7:0] $end
$var reg 8 % pwb[7:0] $end
$var reg 8 & plb[7:0] $end
$var reg 8 ' pp[7:0] $end
$var reg 2 ( poopr1[1:0] $end
$var reg 2 ) poopr2[1:0] $end
$var reg 2 * prd[1:0] $end
$var reg 1 + clk $end
$var reg 1 , pre $end
$var reg 1 - pout $end
$var reg 1 . prt $end
$var reg 1 / pintemp $end
$var reg 1 0 psc $end
$var reg 4 1 psval[3:0] $end
$var reg 4 2 pposts[3:0] $end
$scope module c1 $end
$var reg 8 3 i[7:0] $end
$var reg 1 4 clk $end
$var reg 8 5 poop[7:0] $end
$var reg 8 6 poopo1[7:0] $end
$var reg 8 7 poopo2[7:0] $end
$var reg 2 8 poopr1[1:0] $end
$var reg 2 9 poopr2[1:0] $end
$var reg 2 : prd[1:0] $end
$var reg 8 ; pwb[7:0] $end
$var reg 1 < pre $end
$var reg 1 = pout $end
$var reg 8 > pp[7:0] $end
$var reg 8 ? plb[7:0] $end
$var reg 1 @ prt $end
$var reg 1 A pintemp $end
$var reg 4 B psv[3:0] $end
$var reg 1 C psc $end
$var reg 4 D pposts[3:0] $end
$var reg 2 E r1[1:0] $end
$var reg 2 F r2[1:0] $end
$var reg 2 G rd[1:0] $end
$var reg 4 H imm[3:0] $end
$var reg 1 I aluskip $end
$var reg 1 J pt $end
$var reg 1 K dispbeq $end
$var reg 1 L regwrite $end
$var reg 1 M addsub $end
$var reg 1 N load $end
$var reg 8 O o1[7:0] $end
$var reg 8 P o2[7:0] $end
$var reg 8 Q ext[7:0] $end
$var reg 8 R wb[7:0] $end
$var reg 1 S f $end
$var reg 8 T sum[7:0] $end
$var reg 8 U aluo[7:0] $end
$var reg 8 V p[7:0] $end
$var reg 8 W lb[7:0] $end
$var reg 4 X skipval[3:0] $end
$var reg 1 Y skipcontrol $end
$var reg 1 Z outskip $end
$var reg 4 [ inskip[3:0] $end
$var reg 4 \ postskip[3:0] $end
$var reg 1 ] renable $end
$var reg 1 ^ intemp $end
$var reg 1 _ printenable $end
$var reg 1 ` temp2 $end
$scope module con $end
$var reg 8 a i[7:0] $end
$var reg 1 b aluskip $end
$var reg 1 c print $end
$var reg 1 d dispbeq $end
$var reg 1 e regwrite $end
$var reg 1 f addsub $end
$var reg 1 g load $end
$var reg 4 h s[3:0] $end
$upscope $end
$scope module id $end
$var reg 8 i i[7:0] $end
$var reg 1 j consig $end
$var reg 2 k r1[1:0] $end
$var reg 2 l r2[1:0] $end
$var reg 2 m rd[1:0] $end
$var reg 4 n imm[3:0] $end
$var reg 2 o s1[1:0] $end
$var reg 4 p s2[3:0] $end
$upscope $end
$scope module se $end
$var reg 4 q i[3:0] $end
$var reg 8 r o[7:0] $end
$upscope $end
$scope module reg $end
$var reg 2 s r1[1:0] $end
$var reg 2 t r2[1:0] $end
$var reg 2 u rd[1:0] $end
$var reg 8 v wb[7:0] $end
$var reg 1 w clk $end
$var reg 1 x enable $end
$var reg 8 y o1[7:0] $end
$var reg 8 z o2[7:0] $end
$var reg 8 { v0[7:0] $end
$var reg 8 | v1[7:0] $end
$var reg 8 } v2[7:0] $end
$var reg 8 !" v3[7:0] $end
$var reg 8 "" t0[7:0] $end
$var reg 8 #" t1[7:0] $end
$var reg 8 $" t2[7:0] $end
$var reg 8 %" t3[7:0] $end
$scope module ff0 $end
$var reg 8 &" d[7:0] $end
$var reg 1 '" clk $end
$var reg 1 (" enable $end
$var reg 8 )" q[7:0] $end
$upscope $end
$scope module ff1 $end
$var reg 8 *" d[7:0] $end
$var reg 1 +" clk $end
$var reg 1 ," enable $end
$var reg 8 -" q[7:0] $end
$upscope $end
$scope module ff2 $end
$var reg 8 ." d[7:0] $end
$var reg 1 /" clk $end
$var reg 1 0" enable $end
$var reg 8 1" q[7:0] $end
$upscope $end
$scope module ff3 $end
$var reg 8 2" d[7:0] $end
$var reg 1 3" clk $end
$var reg 1 4" enable $end
$var reg 8 5" q[7:0] $end
$upscope $end
$upscope $end
$scope module alu $end
$var reg 8 6" a[7:0] $end
$var reg 8 7" b[7:0] $end
$var reg 1 8" mode $end
$var reg 1 9" flow $end
$var reg 8 :" s[7:0] $end
$var reg 8 ;" c[7:0] $end
$scope module fa1 $end
$var reg 1 <" i1 $end
$var reg 1 =" i2 $end
$var reg 1 >" m $end
$var reg 1 ?" cin $end
$var reg 1 @" sum $end
$var reg 1 A" cout $end
$var reg 1 B" x $end
$upscope $end
$scope module fa2 $end
$var reg 1 C" i1 $end
$var reg 1 D" i2 $end
$var reg 1 E" m $end
$var reg 1 F" cin $end
$var reg 1 G" sum $end
$var reg 1 H" cout $end
$var reg 1 I" x $end
$upscope $end
$scope module fa3 $end
$var reg 1 J" i1 $end
$var reg 1 K" i2 $end
$var reg 1 L" m $end
$var reg 1 M" cin $end
$var reg 1 N" sum $end
$var reg 1 O" cout $end
$var reg 1 P" x $end
$upscope $end
$scope module fa4 $end
$var reg 1 Q" i1 $end
$var reg 1 R" i2 $end
$var reg 1 S" m $end
$var reg 1 T" cin $end
$var reg 1 U" sum $end
$var reg 1 V" cout $end
$var reg 1 W" x $end
$upscope $end
$scope module fa5 $end
$var reg 1 X" i1 $end
$var reg 1 Y" i2 $end
$var reg 1 Z" m $end
$var reg 1 [" cin $end
$var reg 1 \" sum $end
$var reg 1 ]" cout $end
$var reg 1 ^" x $end
$upscope $end
$scope module fa6 $end
$var reg 1 _" i1 $end
$var reg 1 `" i2 $end
$var reg 1 a" m $end
$var reg 1 b" cin $end
$var reg 1 c" sum $end
$var reg 1 d" cout $end
$var reg 1 e" x $end
$upscope $end
$scope module fa7 $end
$var reg 1 f" i1 $end
$var reg 1 g" i2 $end
$var reg 1 h" m $end
$var reg 1 i" cin $end
$var reg 1 j" sum $end
$var reg 1 k" cout $end
$var reg 1 l" x $end
$upscope $end
$scope module fa8 $end
$var reg 1 m" i1 $end
$var reg 1 n" i2 $end
$var reg 1 o" m $end
$var reg 1 p" cin $end
$var reg 1 q" sum $end
$var reg 1 r" cout $end
$var reg 1 s" x $end
$upscope $end
$upscope $end
$scope module p1 $end
$var reg 8 t" i[7:0] $end
$var reg 1 u" en $end
$var reg 1 v" clk $end
$upscope $end
$scope module sr $end
$var reg 4 w" i[3:0] $end
$var reg 1 x" i_shift_in $end
$var reg 2 y" sel[1:0] $end
$var reg 1 z" clock $end
$var reg 1 {" enable $end
$var reg 4 |" o[3:0] $end
$upscope $end
$upscope $end
$enddefinitions $end
#0
b10000001 !
bUUUUUUUU "
bUUUUUUUU #
bUUUUUUUU $
b00000001 %
bUUUUUUUU &
bUUUUUUUU '
b00 (
b00 )
b00 *
0+
0,
U-
0.
0/
00
b0000 1
bUUUU 2
b10000001 3
04
bUUUUUUUU 5
bUUUUUUUU 6
bUUUUUUUU 7
b00 8
b00 9
b00 :
b00000001 ;
0<
U=
bUUUUUUUU >
bUUUUUUUU ?
0@
0A
b0000 B
0C
bUUUU D
b00 E
b00 F
b00 G
b0001 H
1I
0J
0K
1L
1M
0N
bUUUUUUUU O
bUUUUUUUU P
b00000001 Q
b00000001 R
US
bUUUUUUUU T
bUUUUUUUU U
bUUUUUUUU V
bUUUUUUUU W
b0000 X
0Y
UZ
b0001 [
bUUUU \
0]
0^
0_
U`
b10000001 a
1b
0c
0d
1e
1f
0g
b1100 h
b10000001 i
0j
b00 k
b00 l
b00 m
b0001 n
b00 o
b0001 p
b0001 q
b00000001 r
b00 s
b00 t
b00 u
b00000001 v
0w
1x
bUUUUUUUU y
bUUUUUUUU z
b00000001 {
bUUUUUUUU |
bUUUUUUUU }
bUUUUUUUU !"
bUUUUUUUU ""
bUUUUUUUU #"
bUUUUUUUU $"
bUUUUUUUU %"
b00000001 &"
0'"
1("
bUUUUUUUU )"
bUUUUUUUU *"
0+"
1,"
bUUUUUUUU -"
bUUUUUUUU ."
0/"
10"
bUUUUUUUU 1"
bUUUUUUUU 2"
03"
14"
bUUUUUUUU 5"
bUUUUUUUU 6"
bUUUUUUUU 7"
18"
U9"
bUUUUUUUU :"
bUUUUUUUU ;"
U<"
U="
1>"
1?"
U@"
UA"
UB"
UC"
UD"
1E"
UF"
UG"
UH"
UI"
UJ"
UK"
1L"
UM"
UN"
UO"
UP"
UQ"
UR"
1S"
UT"
UU"
UV"
UW"
UX"
UY"
1Z"
U["
U\"
U]"
U^"
U_"
U`"
1a"
Ub"
Uc"
Ud"
Ue"
Uf"
Ug"
1h"
Ui"
Uj"
Uk"
Ul"
Um"
Un"
1o"
Up"
Uq"
Ur"
Us"
bUUUUUUUU t"
0u"
0v"
b0001 w"
0x"
b10 y"
0z"
0{"
bUUUU |"
#5000000
b10110010 !
bUUUUUUUU "
bUUUUUUUU #
b00000001 $
b00000010 %
bUUUUUUUU &
b11 (
b11 *
1+
1,
b10110010 3
14
bUUUUUUUU 5
bUUUUUUUU 6
b00000001 7
b11 8
b11 :
b00000010 ;
1<
bUUUUUUUU ?
b11 E
b11 G
b0010 H
bUUUUUUUU O
b00000001 P
b00000010 Q
b00000010 R
bUUUUUUUU U
bUUUUUUUU W
b0010 [
1]
U`
b10110010 a
b1000 h
b10110010 i
b11 k
b11 m
b0010 n
b11 o
b0010 p
b0010 q
b00000010 r
b11 s
b11 u
b00000010 v
1w
bUUUUUUUU y
b00000001 z
b00000010 !"
b00000001 ""
1'"
b00000001 )"
1+"
1/"
b00000010 2"
13"
bUUUUUUUU 6"
b00000001 7"
bUUUUUUUU ;"
U<"
1="
UA"
0B"
UC"
0D"
UF"
UH"
1I"
UJ"
0K"
UM"
UO"
1P"
UQ"
0R"
UT"
UV"
1W"
UX"
0Y"
U["
U]"
1^"
U_"
0`"
Ub"
Ud"
1e"
Uf"
0g"
Ui"
Uk"
1l"
Um"
0n"
Up"
Ur"
1s"
1v"
b0010 w"
1z"
#10000000
0+
0,
04
0<
0]
0w
0'"
0+"
0/"
03"
0v"
0z"
#15000000
b10010001 !
bUUUUUUUU "
bUUUUUUUU #
b00000001 %
bUUUUUUUU &
b01 (
b01 *
1+
1,
b10010001 3
14
bUUUUUUUU 5
bUUUUUUUU 6
b01 8
b01 :
b00000001 ;
1<
bUUUUUUUU ?
b01 E
b01 G
b0001 H
bUUUUUUUU O
b00000001 Q
b00000001 R
bUUUUUUUU T
bUUUUUUUU U
bUUUUUUUU W
b0001 [
1]
U`
b10010001 a
b10010001 i
b01 k
b01 m
b0001 n
b01 o
b0001 p
b0001 q
b00000001 r
b01 s
b01 u
b00000001 v
1w
bUUUUUUUU y
b00000001 |
b00000010 %"
1'"
b00000001 *"
1+"
1/"
13"
b00000010 5"
bUUUUUUUU 6"
bUUUUUUUU :"
bUUUUUUUU ;"
U<"
U@"
UA"
UC"
UF"
UH"
UJ"
UM"
UO"
UQ"
UT"
UV"
UX"
U["
U]"
U_"
Ub"
Ud"
Uf"
Ui"
Uk"
Um"
Up"
Ur"
1v"
b0001 w"
1z"
#20000000
0+
0,
04
0<
0]
0w
0'"
0+"
0/"
03"
0v"
0z"
#25000000
b10100111 !
bUUUUUUUU "
bUUUUUUUU #
b00000111 %
bUUUUUUUU &
b10 (
b01 )
b10 *
1+
1,
b10100111 3
14
bUUUUUUUU 5
bUUUUUUUU 6
b10 8
b01 9
b10 :
b00000111 ;
1<
bUUUUUUUU ?
b10 E
b01 F
b10 G
b0111 H
bUUUUUUUU O
b00000111 Q
b00000111 R
bUUUUUUUU T
bUUUUUUUU U
bUUUUUUUU W
b0111 [
1]
U`
b10100111 a
b10100111 i
b10 k
b01 l
b10 m
b0111 n
b10 o
b0011 p
b0111 q
b00000111 r
b10 s
b01 t
b10 u
b00000111 v
1w
bUUUUUUUU y
b00000111 }
b00000001 #"
1'"
1+"
b00000001 -"
b00000111 ."
1/"
13"
bUUUUUUUU 6"
bUUUUUUUU :"
bUUUUUUUU ;"
U<"
U@"
UA"
UC"
UF"
UH"
UJ"
UM"
UO"
UQ"
UT"
UV"
UX"
U["
U]"
U_"
Ub"
Ud"
Uf"
Ui"
Uk"
Um"
Up"
Ur"
1v"
b0111 w"
1z"
#30000000
0+
0,
04
0<
0]
0w
0'"
0+"
0/"
03"
0v"
0z"
#35000000
b11000110 !
b00000000 "
b00000001 #
b00000010 %
b00000000 &
b00 (
b00 *
1+
1,
b11000110 3
14
b00000000 5
b00000001 6
b00 8
b00 :
b00000010 ;
1<
b00000000 ?
b00 E
b00 G
b0010 H
0I
0L
b00000001 O
b00000010 Q
b00000010 R
0S
b00000000 T
b00000000 U
b00000000 W
b0010 [
1]
1`
b11000110 a
0b
0e
b0010 h
b11000110 i
b00 k
b00 m
b0010 n
b00 o
b0010 p
b0010 q
b00000010 r
b00 s
b00 u
b00000010 v
1w
0x
b00000001 y
b00000111 $"
1'"
0("
1+"
0,"
1/"
00"
b00000111 1"
13"
04"
b00000001 6"
09"
b00000000 :"
b11111111 ;"
1<"
0@"
1A"
0C"
1F"
0G"
1H"
0J"
1M"
0N"
1O"
0Q"
1T"
0U"
1V"
0X"
1["
0\"
1]"
0_"
1b"
0c"
1d"
0f"
1i"
0j"
1k"
0m"
1p"
0q"
1r"
1v"
b0010 w"
1z"
#40000000
0+
0,
04
0<
0]
0w
0'"
0+"
0/"
03"
0v"
0z"
#45000000
b11000001 !
b00000001 "
b00000001 %
b00000001 '
b01 (
b00 )
1+
1,
1.
10
b0001 1
b11000001 3
14
b00000001 5
b01 8
b00 9
b00000001 ;
1<
b00000001 >
1@
b0001 B
1C
b01 E
b00 F
b0001 H
1I
1J
1K
b00000001 Q
b00000001 R
b00000001 U
b00000001 V
b0001 X
1Y
b0001 [
1]
1_
b11000001 a
1b
1c
1d
b0111 h
b11000001 i
1j
b01 k
b00 l
b0001 n
b01 o
b0001 p
b0001 q
b00000001 r
b01 s
b00 t
b00000001 v
1w
1'"
1+"
1/"
13"
b00000001 t"
1u"
1v"
b0001 w"
1z"
1{"
#50000000
0+
0,
04
0<
0]
0w
0'"
0+"
0/"
03"
0v"
0z"
#55000000
b11000010 !
b00000111 "
b00000111 #
b00000010 %
b00000111 '
b10 (
1+
1,
0-
b0010 1
b0000 2
b11000010 3
14
b00000111 5
b00000111 6
b10 8
b00000010 ;
1<
0=
b00000111 >
b0010 B
b0000 D
b10 E
b0010 H
b00000111 O
b00000010 Q
b00000010 R
b00000110 T
b00000111 U
b00000111 V
b0010 X
0Z
b0010 [
b0000 \
1]
b11000010 a
b11000010 i
b10 k
b0010 n
b10 o
b0010 p
b0010 q
b00000010 r
b10 s
b00000010 v
1w
b00000111 y
1'"
1+"
1/"
13"
b00000111 6"
b00000110 :"
1C"
1G"
1J"
1N"
b00000111 t"
1v"
b0010 w"
1z"
b0000 |"
#60000000
0+
0,
04
0<
0]
0w
0'"
0+"
0/"
03"
0v"
0z"
#65000000
b11000011 !
b00000010 "
b00000010 #
b00000011 %
b00000010 '
b11 (
1+
0,
1-
1/
b0011 1
b0001 2
b11000011 3
14
b00000010 5
b00000010 6
b11 8
b00000011 ;
0<
1=
b00000010 >
1A
b0011 B
b0001 D
b11 E
b0011 H
b00000010 O
b00000011 Q
b00000011 R
b00000001 T
b00000010 U
b00000010 V
b0011 X
1Z
b0001 [
b0001 \
0]
1^
0_
b11000011 a
b11000011 i
b11 k
b0011 n
b11 o
b0011 p
b0011 q
b00000011 r
b11 s
b00000011 v
0w
b00000010 y
0'"
0+"
0/"
03"
b00000010 6"
b00000001 :"
b11111110 ;"
0<"
1@"
0A"
0F"
0G"
0J"
0N"
b00000010 t"
0u"
1v"
b0001 w"
1z"
b0001 |"
#70000000
0+
04
0v"
0z"
#75000000
1+
1,
0-
0/
b0000 2
14
1<
0=
0A
b0000 D
0Z
b0011 [
b0000 \
1]
0^
1_
1w
1'"
1+"
1/"
13"
1u"
1v"
b0011 w"
1z"
b0000 |"
#80000000
0+
0,
04
0<
0]
0w
0'"
0+"
0/"
03"
0v"
0z"
#85000000
1+
0,
1-
1/
b0001 2
14
0<
1=
1A
b0001 D
1Z
b0001 [
b0001 \
0]
1^
0_
0w
0'"
0+"
0/"
03"
0u"
1v"
b0001 w"
1z"
b0001 |"
#90000000
0+
04
0v"
0z"
#95000000
1+
1,
0-
0/
b0000 2
14
1<
0=
0A
b0000 D
0Z
b0011 [
b0000 \
1]
0^
1_
1w
1'"
1+"
1/"
13"
1u"
1v"
b0011 w"
1z"
b0000 |"
#100000000
0+
0,
04
0<
0]
0w
0'"
0+"
0/"
03"
0v"
0z"
#105000000
1+
0,
1-
1/
b0001 2
14
0<
1=
1A
b0001 D
1Z
b0001 [
b0001 \
0]
1^
0_
0w
0'"
0+"
0/"
03"
0u"
1v"
b0001 w"
1z"
b0001 |"
#110000000
0+
04
0v"
0z"
#115000000
1+
1,
0-
0/
b0000 2
14
1<
0=
0A
b0000 D
0Z
b0011 [
b0000 \
1]
0^
1_
1w
1'"
1+"
1/"
13"
1u"
1v"
b0011 w"
1z"
b0000 |"
#120000000
0+
0,
04
0<
0]
0w
0'"
0+"
0/"
03"
0v"
0z"
#125000000
1+
0,
1-
1/
b0001 2
14
0<
1=
1A
b0001 D
1Z
b0001 [
b0001 \
0]
1^
0_
0w
0'"
0+"
0/"
03"
0u"
1v"
b0001 w"
1z"
b0001 |"
#130000000
0+
04
0v"
0z"
#135000000
1+
1,
0-
0/
b0000 2
14
1<
0=
0A
b0000 D
0Z
b0011 [
b0000 \
1]
0^
1_
1w
1'"
1+"
1/"
13"
1u"
1v"
b0011 w"
1z"
b0000 |"
#140000000
0+
0,
04
0<
0]
0w
0'"
0+"
0/"
03"
0v"
0z"
#145000000
1+
0,
1-
1/
b0001 2
14
0<
1=
1A
b0001 D
1Z
b0001 [
b0001 \
0]
1^
0_
0w
0'"
0+"
0/"
03"
0u"
1v"
b0001 w"
1z"
b0001 |"
#150000000
0+
04
0v"
0z"
#155000000
1+
1,
0-
0/
b0000 2
14
1<
0=
0A
b0000 D
0Z
b0011 [
b0000 \
1]
0^
1_
1w
1'"
1+"
1/"
13"
1u"
1v"
b0011 w"
1z"
b0000 |"
#160000000
0+
0,
04
0<
0]
0w
0'"
0+"
0/"
03"
0v"
0z"
#165000000
1+
0,
1-
1/
b0001 2
14
0<
1=
1A
b0001 D
1Z
b0001 [
b0001 \
0]
1^
0_
0w
0'"
0+"
0/"
03"
0u"
1v"
b0001 w"
1z"
b0001 |"
#170000000
0+
04
0v"
0z"
#175000000
1+
1,
0-
0/
b0000 2
14
1<
0=
0A
b0000 D
0Z
b0011 [
b0000 \
1]
0^
1_
1w
1'"
1+"
1/"
13"
1u"
1v"
b0011 w"
1z"
b0000 |"
#180000000
0+
0,
04
0<
0]
0w
0'"
0+"
0/"
03"
0v"
0z"
#185000000
1+
0,
1-
1/
b0001 2
14
0<
1=
1A
b0001 D
1Z
b0001 [
b0001 \
0]
1^
0_
0w
0'"
0+"
0/"
03"
0u"
1v"
b0001 w"
1z"
b0001 |"
#190000000
0+
04
0v"
0z"
#195000000
1+
1,
0-
0/
b0000 2
14
1<
0=
0A
b0000 D
0Z
b0011 [
b0000 \
1]
0^
1_
1w
1'"
1+"
1/"
13"
1u"
1v"
b0011 w"
1z"
b0000 |"
#200000000
0+
0,
04
0<
0]
0w
0'"
0+"
0/"
03"
0v"
0z"
#205000000
1+
0,
1-
1/
b0001 2
14
0<
1=
1A
b0001 D
1Z
b0001 [
b0001 \
0]
1^
0_
0w
0'"
0+"
0/"
03"
0u"
1v"
b0001 w"
1z"
b0001 |"
#210000000
0+
04
0v"
0z"
#215000000
1+
1,
0-
0/
b0000 2
14
1<
0=
0A
b0000 D
0Z
b0011 [
b0000 \
1]
0^
1_
1w
1'"
1+"
1/"
13"
1u"
1v"
b0011 w"
1z"
b0000 |"
#220000000
0+
0,
04
0<
0]
0w
0'"
0+"
0/"
03"
0v"
0z"
#225000000
1+
0,
1-
1/
b0001 2
14
0<
1=
1A
b0001 D
1Z
b0001 [
b0001 \
0]
1^
0_
0w
0'"
0+"
0/"
03"
0u"
1v"
b0001 w"
1z"
b0001 |"
#230000000
0+
04
0v"
0z"
#235000000
1+
1,
0-
0/
b0000 2
14
1<
0=
0A
b0000 D
0Z
b0011 [
b0000 \
1]
0^
1_
1w
1'"
1+"
1/"
13"
1u"
1v"
b0011 w"
1z"
b0000 |"
#240000000
0+
0,
04
0<
0]
0w
0'"
0+"
0/"
03"
0v"
0z"
#245000000
1+
0,
1-
1/
b0001 2
14
0<
1=
1A
b0001 D
1Z
b0001 [
b0001 \
0]
1^
0_
0w
0'"
0+"
0/"
03"
0u"
1v"
b0001 w"
1z"
b0001 |"
#250000000
0+
04
0v"
0z"
#255000000
1+
1,
0-
0/
b0000 2
14
1<
0=
0A
b0000 D
0Z
b0011 [
b0000 \
1]
0^
1_
1w
1'"
1+"
1/"
13"
1u"
1v"
b0011 w"
1z"
b0000 |"
#260000000
0+
0,
04
0<
0]
0w
0'"
0+"
0/"
03"
0v"
0z"
#265000000
1+
0,
1-
1/
b0001 2
14
0<
1=
1A
b0001 D
1Z
b0001 [
b0001 \
0]
1^
0_
0w
0'"
0+"
0/"
03"
0u"
1v"
b0001 w"
1z"
b0001 |"
#270000000
0+
04
0v"
0z"
#275000000
1+
1,
0-
0/
b0000 2
14
1<
0=
0A
b0000 D
0Z
b0011 [
b0000 \
1]
0^
1_
1w
1'"
1+"
1/"
13"
1u"
1v"
b0011 w"
1z"
b0000 |"
#280000000
0+
0,
04
0<
0]
0w
0'"
0+"
0/"
03"
0v"
0z"
#285000000
1+
0,
1-
1/
b0001 2
14
0<
1=
1A
b0001 D
1Z
b0001 [
b0001 \
0]
1^
0_
0w
0'"
0+"
0/"
03"
0u"
1v"
b0001 w"
1z"
b0001 |"
#290000000
0+
04
0v"
0z"
#295000000
1+
1,
0-
0/
b0000 2
14
1<
0=
0A
b0000 D
0Z
b0011 [
b0000 \
1]
0^
1_
1w
1'"
1+"
1/"
13"
1u"
1v"
b0011 w"
1z"
b0000 |"
#300000000
0+
0,
04
0<
0]
0w
0'"
0+"
0/"
03"
0v"
0z"
#305000000
1+
0,
1-
1/
b0001 2
14
0<
1=
1A
b0001 D
1Z
b0001 [
b0001 \
0]
1^
0_
0w
0'"
0+"
0/"
03"
0u"
1v"
b0001 w"
1z"
b0001 |"
#310000000
0+
04
0v"
0z"
#315000000
1+
1,
0-
0/
b0000 2
14
1<
0=
0A
b0000 D
0Z
b0011 [
b0000 \
1]
0^
1_
1w
1'"
1+"
1/"
13"
1u"
1v"
b0011 w"
1z"
b0000 |"
#320000000
0+
0,
04
0<
0]
0w
0'"
0+"
0/"
03"
0v"
0z"
#325000000
1+
0,
1-
1/
b0001 2
14
0<
1=
1A
b0001 D
1Z
b0001 [
b0001 \
0]
1^
0_
0w
0'"
0+"
0/"
03"
0u"
1v"
b0001 w"
1z"
b0001 |"
#330000000
0+
04
0v"
0z"
#335000000
1+
1,
0-
0/
b0000 2
14
1<
0=
0A
b0000 D
0Z
b0011 [
b0000 \
1]
0^
1_
1w
1'"
1+"
1/"
13"
1u"
1v"
b0011 w"
1z"
b0000 |"
#340000000
0+
0,
04
0<
0]
0w
0'"
0+"
0/"
03"
0v"
0z"
#345000000
1+
0,
1-
1/
b0001 2
14
0<
1=
1A
b0001 D
1Z
b0001 [
b0001 \
0]
1^
0_
0w
0'"
0+"
0/"
03"
0u"
1v"
b0001 w"
1z"
b0001 |"
#350000000
0+
04
0v"
0z"
#355000000
1+
1,
0-
0/
b0000 2
14
1<
0=
0A
b0000 D
0Z
b0011 [
b0000 \
1]
0^
1_
1w
1'"
1+"
1/"
13"
1u"
1v"
b0011 w"
1z"
b0000 |"
#360000000
0+
0,
04
0<
0]
0w
0'"
0+"
0/"
03"
0v"
0z"
#365000000
1+
0,
1-
1/
b0001 2
14
0<
1=
1A
b0001 D
1Z
b0001 [
b0001 \
0]
1^
0_
0w
0'"
0+"
0/"
03"
0u"
1v"
b0001 w"
1z"
b0001 |"
#370000000
0+
04
0v"
0z"
#375000000
1+
1,
0-
0/
b0000 2
14
1<
0=
0A
b0000 D
0Z
b0011 [
b0000 \
1]
0^
1_
1w
1'"
1+"
1/"
13"
1u"
1v"
b0011 w"
1z"
b0000 |"
#380000000
0+
0,
04
0<
0]
0w
0'"
0+"
0/"
03"
0v"
0z"
#385000000
1+
0,
1-
1/
b0001 2
14
0<
1=
1A
b0001 D
1Z
b0001 [
b0001 \
0]
1^
0_
0w
0'"
0+"
0/"
03"
0u"
1v"
b0001 w"
1z"
b0001 |"
#390000000
0+
04
0v"
0z"
#395000000
1+
1,
0-
0/
b0000 2
14
1<
0=
0A
b0000 D
0Z
b0011 [
b0000 \
1]
0^
1_
1w
1'"
1+"
1/"
13"
1u"
1v"
b0011 w"
1z"
b0000 |"
#400000000
0+
0,
04
0<
0]
0w
0'"
0+"
0/"
03"
0v"
0z"
#405000000
1+
0,
1-
1/
b0001 2
14
0<
1=
1A
b0001 D
1Z
b0001 [
b0001 \
0]
1^
0_
0w
0'"
0+"
0/"
03"
0u"
1v"
b0001 w"
1z"
b0001 |"
#410000000
0+
04
0v"
0z"
#415000000
1+
1,
0-
0/
b0000 2
14
1<
0=
0A
b0000 D
0Z
b0011 [
b0000 \
1]
0^
1_
1w
1'"
1+"
1/"
13"
1u"
1v"
b0011 w"
1z"
b0000 |"
#420000000
0+
0,
04
0<
0]
0w
0'"
0+"
0/"
03"
0v"
0z"
#425000000
1+
0,
1-
1/
b0001 2
14
0<
1=
1A
b0001 D
1Z
b0001 [
b0001 \
0]
1^
0_
0w
0'"
0+"
0/"
03"
0u"
1v"
b0001 w"
1z"
b0001 |"
#430000000
0+
04
0v"
0z"
#435000000
1+
1,
0-
0/
b0000 2
14
1<
0=
0A
b0000 D
0Z
b0011 [
b0000 \
1]
0^
1_
1w
1'"
1+"
1/"
13"
1u"
1v"
b0011 w"
1z"
b0000 |"
#440000000
0+
0,
04
0<
0]
0w
0'"
0+"
0/"
03"
0v"
0z"
#445000000
1+
0,
1-
1/
b0001 2
14
0<
1=
1A
b0001 D
1Z
b0001 [
b0001 \
0]
1^
0_
0w
0'"
0+"
0/"
03"
0u"
1v"
b0001 w"
1z"
b0001 |"
#450000000
0+
04
0v"
0z"
#455000000
1+
1,
0-
0/
b0000 2
14
1<
0=
0A
b0000 D
0Z
b0011 [
b0000 \
1]
0^
1_
1w
1'"
1+"
1/"
13"
1u"
1v"
b0011 w"
1z"
b0000 |"
#460000000
0+
0,
04
0<
0]
0w
0'"
0+"
0/"
03"
0v"
0z"
#465000000
1+
0,
1-
1/
b0001 2
14
0<
1=
1A
b0001 D
1Z
b0001 [
b0001 \
0]
1^
0_
0w
0'"
0+"
0/"
03"
0u"
1v"
b0001 w"
1z"
b0001 |"
#470000000
0+
04
0v"
0z"
#475000000
1+
1,
0-
0/
b0000 2
14
1<
0=
0A
b0000 D
0Z
b0011 [
b0000 \
1]
0^
1_
1w
1'"
1+"
1/"
13"
1u"
1v"
b0011 w"
1z"
b0000 |"
#480000000
0+
0,
04
0<
0]
0w
0'"
0+"
0/"
03"
0v"
0z"
#485000000
1+
0,
1-
1/
b0001 2
14
0<
1=
1A
b0001 D
1Z
b0001 [
b0001 \
0]
1^
0_
0w
0'"
0+"
0/"
03"
0u"
1v"
b0001 w"
1z"
b0001 |"
#490000000
0+
04
0v"
0z"
#495000000
1+
1,
0-
0/
b0000 2
14
1<
0=
0A
b0000 D
0Z
b0011 [
b0000 \
1]
0^
1_
1w
1'"
1+"
1/"
13"
1u"
1v"
b0011 w"
1z"
b0000 |"
