calc.vcd
$date
  Fri Apr 27 13:18:27 2018
$end
$version
  GHDL v0
$end
$timescale
  1 fs
$end
$var reg 8 ! i[7:0] $end
$var reg 8 " poop[7:0] $end
$var reg 8 # poopo1[7:0] $end
$var reg 8 $ poopo2[7:0] $end
$var reg 8 % pwb[7:0] $end
$var reg 8 & plb[7:0] $end
$var reg 8 ' pp[7:0] $end
$var reg 2 ( poopr1[1:0] $end
$var reg 2 ) poopr2[1:0] $end
$var reg 2 * prd[1:0] $end
$var reg 1 + clk $end
$var reg 1 , pre $end
$var reg 1 - pout $end
$var reg 1 . prt $end
$var reg 1 / pintemp $end
$var reg 1 0 psc $end
$var reg 1 1 pdb $end
$var reg 1 2 ptemp2 $end
$var reg 4 3 psval[3:0] $end
$var reg 4 4 pposts[3:0] $end
$var reg 4 5 pinskip[3:0] $end
$scope module c1 $end
$var reg 8 6 i[7:0] $end
$var reg 1 7 clk $end
$var reg 8 8 poop[7:0] $end
$var reg 8 9 poopo1[7:0] $end
$var reg 8 : poopo2[7:0] $end
$var reg 2 ; poopr1[1:0] $end
$var reg 2 < poopr2[1:0] $end
$var reg 2 = prd[1:0] $end
$var reg 8 > pwb[7:0] $end
$var reg 1 ? pre $end
$var reg 1 @ pout $end
$var reg 8 A pp[7:0] $end
$var reg 8 B plb[7:0] $end
$var reg 1 C prt $end
$var reg 1 D pintemp $end
$var reg 4 E psv[3:0] $end
$var reg 1 F psc $end
$var reg 4 G pposts[3:0] $end
$var reg 1 H pdb $end
$var reg 1 I ptemp2 $end
$var reg 4 J pinskip[3:0] $end
$var reg 2 K r1[1:0] $end
$var reg 2 L r2[1:0] $end
$var reg 2 M rd[1:0] $end
$var reg 4 N imm[3:0] $end
$var reg 1 O aluskip $end
$var reg 1 P pt $end
$var reg 1 Q dispbeq $end
$var reg 1 R regwrite $end
$var reg 1 S addsub $end
$var reg 1 T load $end
$var reg 8 U o1[7:0] $end
$var reg 8 V o2[7:0] $end
$var reg 8 W ext[7:0] $end
$var reg 8 X wb[7:0] $end
$var reg 1 Y f $end
$var reg 8 Z sum[7:0] $end
$var reg 8 [ aluo[7:0] $end
$var reg 8 \ p[7:0] $end
$var reg 8 ] lb[7:0] $end
$var reg 4 ^ skipval[3:0] $end
$var reg 1 _ skipcontrol $end
$var reg 1 ` outskip $end
$var reg 4 a inskip[3:0] $end
$var reg 4 b postskip[3:0] $end
$var reg 1 c renable $end
$var reg 1 d intemp $end
$var reg 1 e printenable $end
$var reg 1 f temp2 $end
$var reg 1 g srenable $end
$var reg 4 h newimm[3:0] $end
$scope module con $end
$var reg 8 i i[7:0] $end
$var reg 1 j aluskip $end
$var reg 1 k print $end
$var reg 1 l dispbeq $end
$var reg 1 m regwrite $end
$var reg 1 n addsub $end
$var reg 1 o load $end
$var reg 4 p s[3:0] $end
$upscope $end
$scope module id $end
$var reg 8 q i[7:0] $end
$var reg 1 r consig $end
$var reg 2 s r1[1:0] $end
$var reg 2 t r2[1:0] $end
$var reg 2 u rd[1:0] $end
$var reg 4 v imm[3:0] $end
$var reg 2 w s1[1:0] $end
$var reg 4 x s2[3:0] $end
$upscope $end
$scope module se $end
$var reg 4 y i[3:0] $end
$var reg 8 z o[7:0] $end
$upscope $end
$scope module reg $end
$var reg 2 { r1[1:0] $end
$var reg 2 | r2[1:0] $end
$var reg 2 } rd[1:0] $end
$var reg 8 !" wb[7:0] $end
$var reg 1 "" clk $end
$var reg 1 #" enable $end
$var reg 8 $" o1[7:0] $end
$var reg 8 %" o2[7:0] $end
$var reg 8 &" v0[7:0] $end
$var reg 8 '" v1[7:0] $end
$var reg 8 (" v2[7:0] $end
$var reg 8 )" v3[7:0] $end
$var reg 8 *" t0[7:0] $end
$var reg 8 +" t1[7:0] $end
$var reg 8 ," t2[7:0] $end
$var reg 8 -" t3[7:0] $end
$scope module ff0 $end
$var reg 8 ." d[7:0] $end
$var reg 1 /" clk $end
$var reg 1 0" enable $end
$var reg 8 1" q[7:0] $end
$upscope $end
$scope module ff1 $end
$var reg 8 2" d[7:0] $end
$var reg 1 3" clk $end
$var reg 1 4" enable $end
$var reg 8 5" q[7:0] $end
$upscope $end
$scope module ff2 $end
$var reg 8 6" d[7:0] $end
$var reg 1 7" clk $end
$var reg 1 8" enable $end
$var reg 8 9" q[7:0] $end
$upscope $end
$scope module ff3 $end
$var reg 8 :" d[7:0] $end
$var reg 1 ;" clk $end
$var reg 1 <" enable $end
$var reg 8 =" q[7:0] $end
$upscope $end
$upscope $end
$scope module alu $end
$var reg 8 >" a[7:0] $end
$var reg 8 ?" b[7:0] $end
$var reg 1 @" mode $end
$var reg 1 A" flow $end
$var reg 8 B" s[7:0] $end
$var reg 8 C" c[7:0] $end
$scope module fa1 $end
$var reg 1 D" i1 $end
$var reg 1 E" i2 $end
$var reg 1 F" m $end
$var reg 1 G" cin $end
$var reg 1 H" sum $end
$var reg 1 I" cout $end
$var reg 1 J" x $end
$upscope $end
$scope module fa2 $end
$var reg 1 K" i1 $end
$var reg 1 L" i2 $end
$var reg 1 M" m $end
$var reg 1 N" cin $end
$var reg 1 O" sum $end
$var reg 1 P" cout $end
$var reg 1 Q" x $end
$upscope $end
$scope module fa3 $end
$var reg 1 R" i1 $end
$var reg 1 S" i2 $end
$var reg 1 T" m $end
$var reg 1 U" cin $end
$var reg 1 V" sum $end
$var reg 1 W" cout $end
$var reg 1 X" x $end
$upscope $end
$scope module fa4 $end
$var reg 1 Y" i1 $end
$var reg 1 Z" i2 $end
$var reg 1 [" m $end
$var reg 1 \" cin $end
$var reg 1 ]" sum $end
$var reg 1 ^" cout $end
$var reg 1 _" x $end
$upscope $end
$scope module fa5 $end
$var reg 1 `" i1 $end
$var reg 1 a" i2 $end
$var reg 1 b" m $end
$var reg 1 c" cin $end
$var reg 1 d" sum $end
$var reg 1 e" cout $end
$var reg 1 f" x $end
$upscope $end
$scope module fa6 $end
$var reg 1 g" i1 $end
$var reg 1 h" i2 $end
$var reg 1 i" m $end
$var reg 1 j" cin $end
$var reg 1 k" sum $end
$var reg 1 l" cout $end
$var reg 1 m" x $end
$upscope $end
$scope module fa7 $end
$var reg 1 n" i1 $end
$var reg 1 o" i2 $end
$var reg 1 p" m $end
$var reg 1 q" cin $end
$var reg 1 r" sum $end
$var reg 1 s" cout $end
$var reg 1 t" x $end
$upscope $end
$scope module fa8 $end
$var reg 1 u" i1 $end
$var reg 1 v" i2 $end
$var reg 1 w" m $end
$var reg 1 x" cin $end
$var reg 1 y" sum $end
$var reg 1 z" cout $end
$var reg 1 {" x $end
$upscope $end
$upscope $end
$scope module p1 $end
$var reg 8 |" i[7:0] $end
$var reg 1 }" en $end
$var reg 1 !# clk $end
$upscope $end
$scope module sr $end
$var reg 4 "# i[3:0] $end
$var reg 1 ## i_shift_in $end
$var reg 2 $# sel[1:0] $end
$var reg 1 %# clock $end
$var reg 1 &# enable $end
$var reg 4 '# o[3:0] $end
$upscope $end
$upscope $end
$enddefinitions $end
#0
bUUUUUUUU !
bUUUUUUUU "
bUUUUUUUU #
bUUUUUUUU $
bUUUUUUUU %
bUUUUUUUU &
bUUUUUUUU '
bUU (
bUU )
bUU *
0+
0,
U-
U.
0/
U0
U1
U2
bUUUU 3
bUUUU 4
bUUUU 5
bUUUUUUUU 6
07
bUUUUUUUU 8
bUUUUUUUU 9
bUUUUUUUU :
bUU ;
bUU <
bUU =
bUUUUUUUU >
0?
U@
bUUUUUUUU A
bUUUUUUUU B
UC
0D
bUUUU E
UF
bUUUU G
UH
UI
bUUUU J
bUU K
bUU L
bUU M
bUUUU N
UO
UP
UQ
UR
US
UT
bUUUUUUUU U
bUUUUUUUU V
bUUUUUUUU W
bUUUUUUUU X
UY
bUUUUUUUU Z
bUUUUUUUU [
bUUUUUUUU \
bUUUUUUUU ]
bUUUU ^
U_
U`
bUUUU a
bUUUU b
0c
0d
Ue
Uf
Ug
bUUUU h
bUUUUUUUU i
Uj
Uk
Ul
Um
Un
Uo
bUUUU p
bUUUUUUUU q
Ur
bUU s
bUU t
bUU u
bUUUU v
bUU w
bUUUU x
bUUUU y
bUUUUUUUU z
bUU {
bUU |
bUU }
bUUUUUUUU !"
0""
U#"
bUUUUUUUU $"
bUUUUUUUU %"
bUUUUUUUU &"
bUUUUUUUU '"
bUUUUUUUU ("
bUUUUUUUU )"
bUUUUUUUU *"
bUUUUUUUU +"
bUUUUUUUU ,"
bUUUUUUUU -"
bUUUUUUUU ."
0/"
U0"
bUUUUUUUU 1"
bUUUUUUUU 2"
03"
U4"
bUUUUUUUU 5"
bUUUUUUUU 6"
07"
U8"
bUUUUUUUU 9"
bUUUUUUUU :"
0;"
U<"
bUUUUUUUU ="
bUUUUUUUU >"
bUUUUUUUU ?"
U@"
UA"
bUUUUUUUU B"
bUUUUUUUU C"
UD"
UE"
UF"
UG"
UH"
UI"
UJ"
UK"
UL"
UM"
UN"
UO"
UP"
UQ"
UR"
US"
UT"
UU"
UV"
UW"
UX"
UY"
UZ"
U["
U\"
U]"
U^"
U_"
U`"
Ua"
Ub"
Uc"
Ud"
Ue"
Uf"
Ug"
Uh"
Ui"
Uj"
Uk"
Ul"
Um"
Un"
Uo"
Up"
Uq"
Ur"
Us"
Ut"
Uu"
Uv"
Uw"
Ux"
Uy"
Uz"
U{"
bUUUUUUUU |"
U}"
0!#
bUUUU "#
0##
b10 $#
0%#
U&#
bUUUU '#
#5000000
b11000000 !
b00000000 %
b00 (
b00 )
b00 *
1+
1,
1.
00
01
b0000 3
b0000 5
b11000000 6
17
b00 ;
b00 <
b00 =
b00000000 >
1?
1C
b0000 E
0F
0H
b0000 J
b00 K
b00 L
b00 M
b0000 N
1O
1P
0Q
0R
1S
0T
b00000000 W
b00000000 X
b0000 ^
0_
b0000 a
1c
1e
0g
b11000000 i
1j
1k
0l
0m
1n
0o
b0111 p
b11000000 q
0r
b00 s
b00 t
b00 u
b0000 v
b00 w
b0000 x
b0000 y
b00000000 z
b00 {
b00 |
b00 }
b00000000 !"
1""
0#"
1/"
00"
13"
04"
17"
08"
1;"
0<"
1@"
1F"
1G"
1M"
1T"
1["
1b"
1i"
1p"
1w"
1}"
1!#
b0000 "#
1%#
0&#
#10000000
0+
0,
07
0?
0c
0""
0/"
03"
07"
0;"
0!#
0%#
#15000000
b11000001 !
b00000001 %
b01 (
1+
1,
b11000001 6
17
b01 ;
b00000001 >
1?
b01 K
b0001 N
b00000001 W
b00000001 X
1c
b0010 h
b11000001 i
b11000001 q
b01 s
b0001 v
b01 w
b0001 x
b0001 y
b00000001 z
b01 {
b00000001 !"
1""
1/"
13"
17"
1;"
1!#
1%#
#20000000
0+
0,
07
0?
0c
0""
0/"
03"
07"
0;"
0!#
0%#
#25000000
b11000010 !
b00000010 %
b10 (
1+
1,
b11000010 6
17
b10 ;
b00000010 >
1?
b10 K
b0010 N
b00000010 W
b00000010 X
1c
b0100 h
b11000010 i
b11000010 q
b10 s
b0010 v
b10 w
b0010 x
b0010 y
b00000010 z
b10 {
b00000010 !"
1""
1/"
13"
17"
1;"
1!#
1%#
#30000000
0+
0,
07
0?
0c
0""
0/"
03"
07"
0;"
0!#
0%#
#35000000
b11000011 !
b00000011 %
b11 (
1+
1,
b11000011 6
17
b11 ;
b00000011 >
1?
b11 K
b0011 N
b00000011 W
b00000011 X
1c
b11000011 i
b11000011 q
b11 s
b0011 v
b11 w
b0011 x
b0011 y
b00000011 z
b11 {
b00000011 !"
1""
1/"
13"
17"
1;"
1!#
1%#
#40000000
0+
0,
07
0?
0c
0""
0/"
03"
07"
0;"
0!#
0%#
#45000000
b10000101 !
b00000101 %
b01 (
b01 )
1+
1,
0.
b10000101 6
17
b01 ;
b01 <
b00000101 >
1?
0C
b01 K
b01 L
b0101 N
0P
1R
b00000101 W
b00000101 X
1c
0e
b10000101 i
0k
1m
b1000 p
b10000101 q
b01 s
b01 t
b0101 v
b01 w
b0001 x
b0101 y
b00000101 z
b01 {
b01 |
b00000101 !"
1""
1#"
b00000101 &"
b00000101 ."
1/"
10"
13"
14"
17"
18"
1;"
1<"
0}"
1!#
1%#
#50000000
0+
0,
07
0?
0c
0""
0/"
03"
07"
0;"
0!#
0%#
#55000000
b11000000 !
b00000101 "
b00000101 #
b00000101 $
b00000000 %
b00000101 '
b00 (
b00 )
1+
1,
1.
b11000000 6
17
b00000101 8
b00000101 9
b00000101 :
b00 ;
b00 <
b00000000 >
1?
b00000101 A
1C
b00 K
b00 L
b0000 N
1O
1P
0R
b00000101 U
b00000101 V
b00000000 W
b00000000 X
0Y
b00000000 Z
b00000101 [
b00000101 \
1c
1e
b0010 h
b11000000 i
1j
1k
0m
b0111 p
b11000000 q
b00 s
b00 t
b0000 v
b00 w
b0000 x
b0000 y
b00000000 z
b00 {
b00 |
b00000000 !"
1""
0#"
b00000101 $"
b00000101 %"
b00000101 *"
1/"
00"
b00000101 1"
13"
04"
17"
08"
1;"
0<"
b00000101 >"
b00000101 ?"
0A"
b00000000 B"
b11111111 C"
1D"
1E"
0H"
1I"
0J"
0K"
0L"
1N"
0O"
1P"
1Q"
1R"
1S"
1U"
0V"
1W"
0X"
0Y"
0Z"
1\"
0]"
1^"
1_"
0`"
0a"
1c"
0d"
1e"
1f"
0g"
0h"
1j"
0k"
1l"
1m"
0n"
0o"
1q"
0r"
1s"
1t"
0u"
0v"
1x"
0y"
1z"
1{"
b00000101 |"
1}"
1!#
1%#
#60000000
0+
0,
07
0?
0c
0""
0/"
03"
07"
0;"
0!#
0%#
#65000000
b10011101 !
bUUUUUUUU "
bUUUUUUUU #
bUUUUUUUU $
b11111101 %
bUUUUUUUU &
b01 (
b11 )
b01 *
1+
1,
0.
U2
b10011101 6
17
bUUUUUUUU 8
bUUUUUUUU 9
bUUUUUUUU :
b01 ;
b11 <
b01 =
b11111101 >
1?
bUUUUUUUU B
0C
UI
b01 K
b11 L
b01 M
b1101 N
0P
1R
bUUUUUUUU U
bUUUUUUUU V
b11111101 W
b11111101 X
UY
bUUUUUUUU Z
bUUUUUUUU [
bUUUUUUUU ]
1c
0e
Uf
b10011101 i
0k
1m
b1000 p
b10011101 q
b01 s
b11 t
b01 u
b1101 v
b01 w
b0001 x
b1101 y
b11111101 z
b01 {
b11 |
b01 }
b11111101 !"
1""
1#"
bUUUUUUUU $"
bUUUUUUUU %"
b11111101 '"
1/"
10"
b11111101 2"
13"
14"
17"
18"
1;"
1<"
bUUUUUUUU >"
bUUUUUUUU ?"
UA"
bUUUUUUUU B"
bUUUUUUUU C"
UD"
UE"
UH"
UI"
UJ"
UK"
UL"
UN"
UO"
UP"
UQ"
UR"
US"
UU"
UV"
UW"
UX"
UY"
UZ"
U\"
U]"
U^"
U_"
U`"
Ua"
Uc"
Ud"
Ue"
Uf"
Ug"
Uh"
Uj"
Uk"
Ul"
Um"
Un"
Uo"
Uq"
Ur"
Us"
Ut"
Uu"
Uv"
Ux"
Uy"
Uz"
U{"
0}"
1!#
1%#
#70000000
0+
0,
07
0?
0c
0""
0/"
03"
07"
0;"
0!#
0%#
#75000000
b11000001 !
b11111101 "
b11111101 #
b00000101 $
b00000001 %
b11111101 '
b00 )
b00 *
1+
1,
1.
b11000001 6
17
b11111101 8
b11111101 9
b00000101 :
b00 <
b00 =
b00000001 >
1?
b11111101 A
1C
b00 L
b00 M
b0001 N
1O
1P
0R
b11111101 U
b00000101 V
b00000001 W
b00000001 X
0Y
b11111000 Z
b11111101 [
b11111101 \
1c
1e
b11000001 i
1j
1k
0m
b0111 p
b11000001 q
b00 t
b00 u
b0001 v
b0001 y
b00000001 z
b00 |
b00 }
b00000001 !"
1""
0#"
b11111101 $"
b00000101 %"
b11111101 +"
1/"
00"
13"
04"
b11111101 5"
17"
08"
1;"
0<"
b11111101 >"
b00000101 ?"
0A"
b11111000 B"
b11111111 C"
1D"
1E"
0H"
1I"
0J"
0K"
0L"
1N"
0O"
1P"
1Q"
1R"
1S"
1U"
0V"
1W"
0X"
1Y"
0Z"
1\"
1]"
1^"
1_"
1`"
0a"
1c"
1d"
1e"
1f"
1g"
0h"
1j"
1k"
1l"
1m"
1n"
0o"
1q"
1r"
1s"
1t"
1u"
0v"
1x"
1y"
1z"
1{"
b11111101 |"
1}"
1!#
1%#
#80000000
0+
0,
07
0?
0c
0""
0/"
03"
07"
0;"
0!#
0%#
#85000000
b10100000 !
b00000101 "
b00000101 #
b00000000 %
b00000101 &
b00 (
b10 *
1+
1,
0.
02
b10100000 6
17
b00000101 8
b00000101 9
b00 ;
b10 =
b00000000 >
1?
b00000101 B
0C
0I
b00 K
b10 M
b0000 N
0P
1R
b00000101 U
b00000000 W
b00000000 X
b00000000 Z
b00000101 [
b00000101 ]
1c
0e
0f
b10100000 i
0k
1m
b1000 p
b10100000 q
b00 s
b10 u
b0000 v
b00 w
b0000 x
b0000 y
b00000000 z
b00 {
b10 }
b00000000 !"
1""
1#"
b00000101 $"
b00000000 ("
1/"
10"
13"
14"
b00000000 6"
17"
18"
1;"
1<"
b00000101 >"
b00000000 B"
0Y"
0]"
0`"
0d"
0g"
0k"
0n"
0r"
0u"
0y"
0}"
1!#
1%#
#90000000
0+
0,
07
0?
0c
0""
0/"
03"
07"
0;"
0!#
0%#
#95000000
b11000010 !
b00000000 "
b00000000 #
b00000010 %
b00000000 '
b10 (
b00 *
1+
1,
1.
b11000010 6
17
b00000000 8
b00000000 9
b10 ;
b00 =
b00000010 >
1?
b00000000 A
1C
b10 K
b00 M
b0010 N
1O
1P
0R
b00000000 U
b00000010 W
b00000010 X
0Y
b11111011 Z
b00000000 [
b00000000 \
1c
1e
b0100 h
b11000010 i
1j
1k
0m
b0111 p
b11000010 q
b10 s
b00 u
b0010 v
b10 w
b0010 x
b0010 y
b00000010 z
b10 {
b00 }
b00000010 !"
1""
0#"
b00000000 $"
b00000000 ,"
1/"
00"
13"
04"
17"
08"
b00000000 9"
1;"
0<"
b00000000 >"
0A"
b11111011 B"
b00000000 C"
0D"
1H"
0I"
0N"
1O"
0P"
0R"
0U"
0V"
0W"
0\"
1]"
0^"
0c"
1d"
0e"
0j"
1k"
0l"
0q"
1r"
0s"
0x"
1y"
0z"
b00000000 |"
1}"
1!#
1%#
#100000000
0+
0,
07
0?
0c
0""
0/"
03"
07"
0;"
0!#
0%#
#105000000
b10110111 !
bUUUUUUUU "
bUUUUUUUU #
b11111101 $
b00000111 %
bUUUUUUUU &
b11 (
b01 )
b11 *
1+
1,
0.
U2
b10110111 6
17
bUUUUUUUU 8
bUUUUUUUU 9
b11111101 :
b11 ;
b01 <
b11 =
b00000111 >
1?
bUUUUUUUU B
0C
UI
b11 K
b01 L
b11 M
b0111 N
0P
1R
bUUUUUUUU U
b11111101 V
b00000111 W
b00000111 X
UY
bUUUUUUUU Z
bUUUUUUUU [
bUUUUUUUU ]
1c
0e
Uf
b10110111 i
0k
1m
b1000 p
b10110111 q
b11 s
b01 t
b11 u
b0111 v
b11 w
b0011 x
b0111 y
b00000111 z
b11 {
b01 |
b11 }
b00000111 !"
1""
1#"
bUUUUUUUU $"
b11111101 %"
b00000111 )"
1/"
10"
13"
14"
17"
18"
b00000111 :"
1;"
1<"
bUUUUUUUU >"
b11111101 ?"
UA"
bUUUUUUUU B"
bUUUUUUUU C"
UD"
UH"
UI"
UK"
UN"
UO"
UP"
UR"
UU"
UV"
UW"
UY"
1Z"
U\"
U]"
U^"
0_"
U`"
1a"
Uc"
Ud"
Ue"
0f"
Ug"
1h"
Uj"
Uk"
Ul"
0m"
Un"
1o"
Uq"
Ur"
Us"
0t"
Uu"
1v"
Ux"
Uy"
Uz"
0{"
0}"
1!#
1%#
#110000000
0+
0,
07
0?
0c
0""
0/"
03"
07"
0;"
0!#
0%#
#115000000
b11000011 !
b00000111 "
b00000111 #
b00000101 $
b00000011 %
b00000111 '
b00 )
b00 *
1+
1,
1.
b11000011 6
17
b00000111 8
b00000111 9
b00000101 :
b00 <
b00 =
b00000011 >
1?
b00000111 A
1C
b00 L
b00 M
b0011 N
1O
1P
0R
b00000111 U
b00000101 V
b00000011 W
b00000011 X
0Y
b00000010 Z
b00000111 [
b00000111 \
1c
1e
b11000011 i
1j
1k
0m
b0111 p
b11000011 q
b00 t
b00 u
b0011 v
b0011 y
b00000011 z
b00 |
b00 }
b00000011 !"
1""
0#"
b00000111 $"
b00000101 %"
b00000111 -"
1/"
00"
13"
04"
17"
08"
1;"
0<"
b00000111 ="
b00000111 >"
b00000101 ?"
0A"
b00000010 B"
b11111111 C"
1D"
0H"
1I"
1K"
1N"
1O"
1P"
1R"
1U"
0V"
1W"
0Y"
0Z"
1\"
0]"
1^"
1_"
0`"
0a"
1c"
0d"
1e"
1f"
0g"
0h"
1j"
0k"
1l"
1m"
0n"
0o"
1q"
0r"
1s"
1t"
0u"
0v"
1x"
0y"
1z"
1{"
b00000111 |"
1}"
1!#
1%#
#120000000
0+
0,
07
0?
0c
0""
0/"
03"
07"
0;"
0!#
0%#
#125000000
b10001000 !
b00000101 "
b00000101 #
b00000000 $
b11111000 %
b00000101 &
b00 (
b10 )
1+
1,
0.
02
b10001000 6
17
b00000101 8
b00000101 9
b00000000 :
b00 ;
b10 <
b11111000 >
1?
b00000101 B
0C
0I
b00 K
b10 L
b1000 N
0P
1R
b00000101 U
b00000000 V
b11111000 W
b11111000 X
b00000101 Z
b00000101 [
b00000101 ]
1c
0e
0f
b10001000 i
0k
1m
b1000 p
b10001000 q
b00 s
b10 t
b1000 v
b00 w
b0000 x
b1000 y
b11111000 z
b00 {
b10 |
b11111000 !"
1""
1#"
b00000101 $"
b00000000 %"
b11111000 &"
b11111000 ."
1/"
10"
13"
14"
17"
18"
1;"
1<"
b00000101 >"
b00000000 ?"
b00000101 B"
0E"
1H"
1J"
0K"
0O"
0S"
1V"
1X"
0}"
1!#
1%#
#130000000
0+
0,
07
0?
0c
0""
0/"
03"
07"
0;"
0!#
0%#
#135000000
b11000000 !
b11111000 "
b11111000 #
b11111000 $
b00000000 %
b11111000 '
b00 )
1+
1,
1.
b11000000 6
17
b11111000 8
b11111000 9
b11111000 :
b00 <
b00000000 >
1?
b11111000 A
1C
b00 L
b0000 N
1O
1P
0R
b11111000 U
b11111000 V
b00000000 W
b00000000 X
b00000000 Z
b11111000 [
b11111000 \
1c
1e
b11000000 i
1j
1k
0m
b0111 p
b11000000 q
b00 t
b0000 v
b0000 y
b00000000 z
b00 |
b00000000 !"
1""
0#"
b11111000 $"
b11111000 %"
b11111000 *"
1/"
00"
b11111000 1"
13"
04"
17"
08"
1;"
0<"
b11111000 >"
b11111000 ?"
b00000000 B"
0D"
0H"
0R"
0V"
1Y"
1Z"
0]"
0_"
1`"
1a"
0d"
0f"
1g"
1h"
0k"
0m"
1n"
1o"
0r"
0t"
1u"
1v"
0y"
0{"
b11111000 |"
1}"
1!#
1%#
#140000000
0+
0,
07
0?
0c
0""
0/"
03"
07"
0;"
0!#
0%#
#145000000
b00011001 !
b11111101 "
b00000000 #
b11111101 $
b11111101 %
b11111101 &
b10 (
b01 )
b01 *
1+
1,
0.
02
b00011001 6
17
b11111101 8
b00000000 9
b11111101 :
b10 ;
b01 <
b01 =
b11111101 >
1?
b11111101 B
0C
0I
b10 K
b01 L
b01 M
b1001 N
0O
0P
1R
0S
1T
b00000000 U
b11111101 V
b11111001 W
b11111101 X
0Y
b11111101 Z
b11111101 [
b11111101 ]
1c
0e
0f
b00011001 i
0j
0k
1m
0n
1o
b0000 p
b00011001 q
b10 s
b01 t
b01 u
b1001 v
b01 w
b0001 x
b1001 y
b11111001 z
b10 {
b01 |
b01 }
b11111101 !"
1""
1#"
b00000000 $"
b11111101 %"
b11111101 '"
1/"
10"
b11111101 2"
13"
14"
17"
18"
1;"
1<"
b00000000 >"
b11111101 ?"
0@"
0A"
b11111101 B"
b00000000 C"
1E"
0F"
0G"
1H"
0I"
1J"
0M"
0N"
0P"
0Q"
1S"
0T"
0U"
1V"
0W"
1X"
0Y"
0["
0\"
1]"
0^"
1_"
0`"
0b"
0c"
1d"
0e"
1f"
0g"
0i"
0j"
1k"
0l"
1m"
0n"
0p"
0q"
1r"
0s"
1t"
0u"
0w"
0x"
1y"
0z"
1{"
0}"
1!#
1%#
#150000000
0+
0,
07
0?
0c
0""
0/"
03"
07"
0;"
0!#
0%#
#155000000
b11000001 !
b11111101 "
b11111101 #
b11111000 $
b00000001 %
b11111101 '
b01 (
b00 )
b00 *
1+
1,
1.
b11000001 6
17
b11111101 8
b11111101 9
b11111000 :
b01 ;
b00 <
b00 =
b00000001 >
1?
b11111101 A
1C
b01 K
b00 L
b00 M
b0001 N
1O
1P
0R
1S
0T
b11111101 U
b11111000 V
b00000001 W
b00000001 X
0Y
b00000101 Z
b11111101 [
b11111101 \
1c
1e
b0010 h
b11000001 i
1j
1k
0m
1n
0o
b0111 p
b11000001 q
b01 s
b00 t
b00 u
b0001 v
b0001 y
b00000001 z
b01 {
b00 |
b00 }
b00000001 !"
1""
0#"
b11111101 $"
b11111000 %"
1/"
00"
13"
04"
17"
08"
1;"
0<"
b11111101 >"
b11111000 ?"
1@"
0A"
b00000101 B"
b11111111 C"
1D"
0E"
1F"
1G"
1H"
1I"
1J"
1M"
1N"
1P"
1Q"
1R"
0S"
1T"
1U"
1W"
1X"
1Y"
1["
1\"
0]"
1^"
0_"
1`"
1b"
1c"
0d"
1e"
0f"
1g"
1i"
1j"
0k"
1l"
0m"
1n"
1p"
1q"
0r"
1s"
0t"
1u"
1w"
1x"
0y"
1z"
0{"
b11111101 |"
1}"
1!#
1%#
#160000000
0+
0,
07
0?
0c
0""
0/"
03"
07"
0;"
0!#
0%#
#165000000
b00101101 !
b00000100 "
b00000111 #
b11111101 $
b00000100 %
b00000100 &
b11 (
b01 )
b10 *
1+
1,
0.
02
b00101101 6
17
b00000100 8
b00000111 9
b11111101 :
b11 ;
b01 <
b10 =
b00000100 >
1?
b00000100 B
0C
0I
b11 K
b01 L
b10 M
b1101 N
0O
0P
1R
0S
1T
b00000111 U
b11111101 V
b11111101 W
b00000100 X
b00000100 Z
b00000100 [
b00000100 ]
1c
0e
0f
b00101101 i
0j
0k
1m
0n
1o
b0000 p
b00101101 q
b11 s
b01 t
b10 u
b1101 v
b1101 y
b11111101 z
b11 {
b01 |
b10 }
b00000100 !"
1""
1#"
b00000111 $"
b11111101 %"
b00000100 ("
1/"
10"
13"
14"
b00000100 6"
17"
18"
1;"
1<"
b00000111 >"
b11111101 ?"
0@"
b00000100 B"
b11111111 C"
1E"
0F"
0G"
0H"
1I"
1J"
1K"
0M"
1N"
0O"
1P"
0Q"
1S"
0T"
1U"
1V"
1X"
0Y"
0["
1_"
0`"
0b"
1f"
0g"
0i"
1m"
0n"
0p"
1t"
0u"
0w"
1{"
0}"
1!#
1%#
#170000000
0+
0,
07
0?
0c
0""
0/"
03"
07"
0;"
0!#
0%#
#175000000
b11000010 !
b00000100 "
b00000100 #
b11111000 $
b00000010 %
b00000100 '
b10 (
b00 )
b00 *
1+
1,
1.
b11000010 6
17
b00000100 8
b00000100 9
b11111000 :
b10 ;
b00 <
b00 =
b00000010 >
1?
b00000100 A
1C
b10 K
b00 L
b00 M
b0010 N
1O
1P
0R
1S
0T
b00000100 U
b11111000 V
b00000010 W
b00000010 X
b00001100 Z
b00000100 [
b00000100 \
1c
1e
b0100 h
b11000010 i
1j
1k
0m
1n
0o
b0111 p
b11000010 q
b10 s
b00 t
b00 u
b0010 v
b10 w
b0010 x
b0010 y
b00000010 z
b10 {
b00 |
b00 }
b00000010 !"
1""
0#"
b00000100 $"
b11111000 %"
b00000100 ,"
1/"
00"
13"
04"
17"
08"
b00000100 9"
1;"
0<"
b00000100 >"
b11111000 ?"
1@"
b00001100 B"
b00000111 C"
0D"
0E"
1F"
1G"
0H"
1J"
0K"
1M"
1Q"
0S"
1T"
1V"
1X"
0Y"
1["
1]"
0^"
0_"
0`"
1b"
0c"
0d"
0e"
0f"
0g"
1i"
0j"
0k"
0l"
0m"
0n"
1p"
0q"
0r"
0s"
0t"
0u"
1w"
0x"
0y"
0z"
0{"
b00000100 |"
1}"
1!#
1%#
#180000000
0+
0,
07
0?
0c
0""
0/"
03"
07"
0;"
0!#
0%#
#185000000
b00111110 !
b00001011 "
b00000111 #
b00000100 $
b00001011 %
b00001011 &
b11 (
b10 )
b11 *
1+
1,
0.
b00111110 6
17
b00001011 8
b00000111 9
b00000100 :
b11 ;
b10 <
b11 =
b00001011 >
1?
b00001011 B
0C
b11 K
b10 L
b11 M
b1110 N
0O
0P
1R
0S
1T
b00000111 U
b00000100 V
b11111110 W
b00001011 X
b00001011 Z
b00001011 [
b00001011 ]
1c
0e
b00111110 i
0j
0k
1m
0n
1o
b0000 p
b00111110 q
b11 s
b10 t
b11 u
b1110 v
b1110 y
b11111110 z
b11 {
b10 |
b11 }
b00001011 !"
1""
1#"
b00000111 $"
b00000100 %"
b00001011 )"
1/"
10"
13"
14"
17"
18"
b00001011 :"
1;"
1<"
b00000111 >"
b00000100 ?"
0@"
b00001011 B"
b00000100 C"
1D"
0F"
0G"
1H"
0I"
0J"
1K"
0M"
0N"
1O"
0P"
0Q"
1S"
0T"
0U"
0V"
1X"
0Z"
0["
1]"
0^"
0_"
0a"
0b"
0c"
0d"
0f"
0h"
0i"
0k"
0m"
0o"
0p"
0r"
0t"
0v"
0w"
0y"
0{"
0}"
1!#
1%#
#190000000
0+
0,
07
0?
0c
0""
0/"
03"
07"
0;"
0!#
0%#
