calc.vcd
$date
  Wed Apr 25 21:07:48 2018
$end
$version
  GHDL v0
$end
$timescale
  1 fs
$end
$var reg 8 ! i[7:0] $end
$var reg 8 " poop[7:0] $end
$var reg 8 # poopo1[7:0] $end
$var reg 8 $ poopo2[7:0] $end
$var reg 8 % pwb[7:0] $end
$var reg 8 & plb[7:0] $end
$var reg 8 ' pp[7:0] $end
$var reg 2 ( poopr1[1:0] $end
$var reg 2 ) poopr2[1:0] $end
$var reg 2 * prd[1:0] $end
$var reg 1 + clk $end
$var reg 1 , pre $end
$var reg 1 - pout $end
$var reg 1 . prt $end
$scope module c1 $end
$var reg 8 / i[7:0] $end
$var reg 1 0 clk $end
$var reg 8 1 poop[7:0] $end
$var reg 8 2 poopo1[7:0] $end
$var reg 8 3 poopo2[7:0] $end
$var reg 2 4 poopr1[1:0] $end
$var reg 2 5 poopr2[1:0] $end
$var reg 2 6 prd[1:0] $end
$var reg 8 7 pwb[7:0] $end
$var reg 1 8 pre $end
$var reg 1 9 pout $end
$var reg 8 : pp[7:0] $end
$var reg 8 ; plb[7:0] $end
$var reg 1 < prt $end
$var reg 2 = r1[1:0] $end
$var reg 2 > r2[1:0] $end
$var reg 2 ? rd[1:0] $end
$var reg 4 @ imm[3:0] $end
$var reg 1 A aluskip $end
$var reg 1 B pt $end
$var reg 1 C dispbeq $end
$var reg 1 D regwrite $end
$var reg 1 E addsub $end
$var reg 1 F load $end
$var reg 8 G o1[7:0] $end
$var reg 8 H o2[7:0] $end
$var reg 8 I ext[7:0] $end
$var reg 8 J wb[7:0] $end
$var reg 1 K f $end
$var reg 8 L sum[7:0] $end
$var reg 8 M aluo[7:0] $end
$var reg 8 N p[7:0] $end
$var reg 8 O lb[7:0] $end
$var reg 4 P skipval[3:0] $end
$var reg 1 Q skipcontrol $end
$var reg 1 R outskip $end
$var reg 4 S inskip[3:0] $end
$var reg 4 T postskip[3:0] $end
$var reg 1 U renable $end
$var reg 1 V intemp $end
$scope module con $end
$var reg 8 W i[7:0] $end
$var reg 1 X aluskip $end
$var reg 1 Y print $end
$var reg 1 Z dispbeq $end
$var reg 1 [ regwrite $end
$var reg 1 \ addsub $end
$var reg 1 ] load $end
$var reg 4 ^ s[3:0] $end
$upscope $end
$scope module id $end
$var reg 8 _ i[7:0] $end
$var reg 1 ` consig $end
$var reg 2 a r1[1:0] $end
$var reg 2 b r2[1:0] $end
$var reg 2 c rd[1:0] $end
$var reg 4 d imm[3:0] $end
$var reg 2 e s1[1:0] $end
$var reg 4 f s2[3:0] $end
$upscope $end
$scope module se $end
$var reg 4 g i[3:0] $end
$var reg 8 h o[7:0] $end
$upscope $end
$scope module reg $end
$var reg 2 i r1[1:0] $end
$var reg 2 j r2[1:0] $end
$var reg 2 k rd[1:0] $end
$var reg 8 l wb[7:0] $end
$var reg 1 m clk $end
$var reg 1 n enable $end
$var reg 8 o o1[7:0] $end
$var reg 8 p o2[7:0] $end
$var reg 8 q v0[7:0] $end
$var reg 8 r v1[7:0] $end
$var reg 8 s v2[7:0] $end
$var reg 8 t v3[7:0] $end
$var reg 8 u t0[7:0] $end
$var reg 8 v t1[7:0] $end
$var reg 8 w t2[7:0] $end
$var reg 8 x t3[7:0] $end
$scope module ff0 $end
$var reg 8 y d[7:0] $end
$var reg 1 z clk $end
$var reg 1 { enable $end
$var reg 8 | q[7:0] $end
$upscope $end
$scope module ff1 $end
$var reg 8 } d[7:0] $end
$var reg 1 !" clk $end
$var reg 1 "" enable $end
$var reg 8 #" q[7:0] $end
$upscope $end
$scope module ff2 $end
$var reg 8 $" d[7:0] $end
$var reg 1 %" clk $end
$var reg 1 &" enable $end
$var reg 8 '" q[7:0] $end
$upscope $end
$scope module ff3 $end
$var reg 8 (" d[7:0] $end
$var reg 1 )" clk $end
$var reg 1 *" enable $end
$var reg 8 +" q[7:0] $end
$upscope $end
$upscope $end
$scope module alu $end
$var reg 8 ," a[7:0] $end
$var reg 8 -" b[7:0] $end
$var reg 1 ." mode $end
$var reg 1 /" flow $end
$var reg 8 0" s[7:0] $end
$var reg 8 1" c[7:0] $end
$scope module fa1 $end
$var reg 1 2" i1 $end
$var reg 1 3" i2 $end
$var reg 1 4" m $end
$var reg 1 5" cin $end
$var reg 1 6" sum $end
$var reg 1 7" cout $end
$var reg 1 8" x $end
$upscope $end
$scope module fa2 $end
$var reg 1 9" i1 $end
$var reg 1 :" i2 $end
$var reg 1 ;" m $end
$var reg 1 <" cin $end
$var reg 1 =" sum $end
$var reg 1 >" cout $end
$var reg 1 ?" x $end
$upscope $end
$scope module fa3 $end
$var reg 1 @" i1 $end
$var reg 1 A" i2 $end
$var reg 1 B" m $end
$var reg 1 C" cin $end
$var reg 1 D" sum $end
$var reg 1 E" cout $end
$var reg 1 F" x $end
$upscope $end
$scope module fa4 $end
$var reg 1 G" i1 $end
$var reg 1 H" i2 $end
$var reg 1 I" m $end
$var reg 1 J" cin $end
$var reg 1 K" sum $end
$var reg 1 L" cout $end
$var reg 1 M" x $end
$upscope $end
$scope module fa5 $end
$var reg 1 N" i1 $end
$var reg 1 O" i2 $end
$var reg 1 P" m $end
$var reg 1 Q" cin $end
$var reg 1 R" sum $end
$var reg 1 S" cout $end
$var reg 1 T" x $end
$upscope $end
$scope module fa6 $end
$var reg 1 U" i1 $end
$var reg 1 V" i2 $end
$var reg 1 W" m $end
$var reg 1 X" cin $end
$var reg 1 Y" sum $end
$var reg 1 Z" cout $end
$var reg 1 [" x $end
$upscope $end
$scope module fa7 $end
$var reg 1 \" i1 $end
$var reg 1 ]" i2 $end
$var reg 1 ^" m $end
$var reg 1 _" cin $end
$var reg 1 `" sum $end
$var reg 1 a" cout $end
$var reg 1 b" x $end
$upscope $end
$scope module fa8 $end
$var reg 1 c" i1 $end
$var reg 1 d" i2 $end
$var reg 1 e" m $end
$var reg 1 f" cin $end
$var reg 1 g" sum $end
$var reg 1 h" cout $end
$var reg 1 i" x $end
$upscope $end
$upscope $end
$scope module p1 $end
$var reg 8 j" i[7:0] $end
$var reg 1 k" en $end
$var reg 1 l" clk $end
$upscope $end
$scope module sr $end
$var reg 4 m" i[3:0] $end
$var reg 1 n" i_shift_in $end
$var reg 2 o" sel[1:0] $end
$var reg 1 p" clock $end
$var reg 1 q" enable $end
$var reg 4 r" o[3:0] $end
$upscope $end
$upscope $end
$enddefinitions $end
#0
bUUUUUUUU !
bUUUUUUUU "
bUUUUUUUU #
bUUUUUUUU $
bUUUUUUUU %
bUUUUUUUU &
bUUUUUUUU '
bUU (
bUU )
bUU *
0+
0,
U-
U.
bUUUUUUUU /
00
bUUUUUUUU 1
bUUUUUUUU 2
bUUUUUUUU 3
bUU 4
bUU 5
bUU 6
bUUUUUUUU 7
08
U9
bUUUUUUUU :
bUUUUUUUU ;
U<
bUU =
bUU >
bUU ?
bUUUU @
UA
UB
UC
UD
UE
UF
bUUUUUUUU G
bUUUUUUUU H
bUUUUUUUU I
bUUUUUUUU J
UK
bUUUUUUUU L
bUUUUUUUU M
bUUUUUUUU N
bUUUUUUUU O
bUUUU P
UQ
UR
bUUUU S
bUUUU T
0U
0V
bUUUUUUUU W
UX
UY
UZ
U[
U\
U]
bUUUU ^
bUUUUUUUU _
U`
bUU a
bUU b
bUU c
bUUUU d
bUU e
bUUUU f
bUUUU g
bUUUUUUUU h
bUU i
bUU j
bUU k
bUUUUUUUU l
0m
Un
bUUUUUUUU o
bUUUUUUUU p
bUUUUUUUU q
bUUUUUUUU r
bUUUUUUUU s
bUUUUUUUU t
bUUUUUUUU u
bUUUUUUUU v
bUUUUUUUU w
bUUUUUUUU x
bUUUUUUUU y
0z
U{
bUUUUUUUU |
bUUUUUUUU }
0!"
U""
bUUUUUUUU #"
bUUUUUUUU $"
0%"
U&"
bUUUUUUUU '"
bUUUUUUUU ("
0)"
U*"
bUUUUUUUU +"
bUUUUUUUU ,"
bUUUUUUUU -"
U."
U/"
bUUUUUUUU 0"
bUUUUUUUU 1"
U2"
U3"
U4"
U5"
U6"
U7"
U8"
U9"
U:"
U;"
U<"
U="
U>"
U?"
U@"
UA"
UB"
UC"
UD"
UE"
UF"
UG"
UH"
UI"
UJ"
UK"
UL"
UM"
UN"
UO"
UP"
UQ"
UR"
US"
UT"
UU"
UV"
UW"
UX"
UY"
UZ"
U["
U\"
U]"
U^"
U_"
U`"
Ua"
Ub"
Uc"
Ud"
Ue"
Uf"
Ug"
Uh"
Ui"
bUUUUUUUU j"
Uk"
0l"
bUUUU m"
0n"
b10 o"
0p"
1q"
bUUUU r"
#5000000
b11000000 !
b00000000 %
b00 (
b00 )
b00 *
1+
1,
1.
b11000000 /
10
b00 4
b00 5
b00 6
b00000000 7
18
1<
b00 =
b00 >
b00 ?
b0000 @
1A
1B
1C
0D
1E
0F
b00000000 I
b00000000 J
b0UUU T
1U
b11000000 W
1X
1Y
1Z
0[
1\
0]
b0111 ^
b11000000 _
1`
b00 a
b00 b
b00 c
b0000 d
b00 e
b0000 f
b0000 g
b00000000 h
b00 i
b00 j
b00 k
b00000000 l
1m
0n
b00000000 q
b00000000 y
1z
0{
1!"
0""
1%"
0&"
1)"
0*"
1."
14"
15"
1;"
1B"
1I"
1P"
1W"
1^"
1e"
1k"
1l"
1p"
b0UUU r"
#10000000
0+
0,
00
08
0U
0m
0z
0!"
0%"
0)"
0l"
0p"
#15000000
b11000001 !
b00000001 %
b01 (
1+
1,
b11000001 /
10
b01 4
b00000001 7
18
b01 =
b0001 @
b00000001 I
b00000001 J
1U
b11000001 W
b11000001 _
b01 a
b0001 d
b01 e
b0001 f
b0001 g
b00000001 h
b01 i
b00000001 l
1m
b00000001 q
b00000001 y
1z
1!"
1%"
1)"
1l"
1p"
#20000000
0+
0,
00
08
0U
0m
0z
0!"
0%"
0)"
0l"
0p"
#25000000
b11000010 !
b00000010 %
b10 (
1+
1,
b11000010 /
10
b10 4
b00000010 7
18
b10 =
b0010 @
b00000010 I
b00000010 J
1U
b11000010 W
b11000010 _
b10 a
b0010 d
b10 e
b0010 f
b0010 g
b00000010 h
b10 i
b00000010 l
1m
b00000010 q
b00000010 y
1z
1!"
1%"
1)"
1l"
1p"
#30000000
0+
0,
00
08
0U
0m
0z
0!"
0%"
0)"
0l"
0p"
#35000000
b11000011 !
b00000011 %
b11 (
1+
1,
b11000011 /
10
b11 4
b00000011 7
18
b11 =
b0011 @
b00000011 I
b00000011 J
1U
b11000011 W
b11000011 _
b11 a
b0011 d
b11 e
b0011 f
b0011 g
b00000011 h
b11 i
b00000011 l
1m
b00000011 q
b00000011 y
1z
1!"
1%"
1)"
1l"
1p"
#40000000
0+
0,
00
08
0U
0m
0z
0!"
0%"
0)"
0l"
0p"
#45000000
b10000101 !
b00000101 %
b00 (
b01 )
1+
1,
0.
b10000101 /
10
b00 4
b01 5
b00000101 7
18
0<
b00 =
b01 >
b0101 @
0B
0C
1D
b00000101 I
b00000101 J
1U
b10000101 W
0Y
0Z
1[
b1000 ^
b10000101 _
0`
b00 a
b01 b
b0101 d
b00 e
b0001 f
b0101 g
b00000101 h
b00 i
b01 j
b00000101 l
1m
1n
b00000101 q
b00000101 y
1z
1{
1!"
1""
1%"
1&"
1)"
1*"
0k"
1l"
1p"
#50000000
0+
0,
00
08
0U
0m
0z
0!"
0%"
0)"
0l"
0p"
#55000000
b11000000 !
b00000101 "
b00000101 #
b00000101 $
b00000000 %
b00000101 '
b00 )
1+
1,
1.
b11000000 /
10
b00000101 1
b00000101 2
b00000101 3
b00 5
b00000000 7
18
b00000101 :
1<
b00 >
b0000 @
1A
1B
1C
0D
b00000101 G
b00000101 H
b00000000 I
b00000000 J
0K
b00000000 L
b00000101 M
b00000101 N
1U
b11000000 W
1X
1Y
1Z
0[
b0111 ^
b11000000 _
1`
b00 b
b0000 d
b0000 f
b0000 g
b00000000 h
b00 j
b00000000 l
1m
0n
b00000101 o
b00000101 p
b00000000 q
b00000101 u
b00000000 y
1z
0{
b00000101 |
1!"
0""
1%"
0&"
1)"
0*"
b00000101 ,"
b00000101 -"
0/"
b00000000 0"
b11111111 1"
12"
13"
06"
17"
08"
09"
0:"
1<"
0="
1>"
1?"
1@"
1A"
1C"
0D"
1E"
0F"
0G"
0H"
1J"
0K"
1L"
1M"
0N"
0O"
1Q"
0R"
1S"
1T"
0U"
0V"
1X"
0Y"
1Z"
1["
0\"
0]"
1_"
0`"
1a"
1b"
0c"
0d"
1f"
0g"
1h"
1i"
b00000101 j"
1k"
1l"
1p"
#60000000
0+
0,
00
08
0U
0m
0z
0!"
0%"
0)"
0l"
0p"
#65000000
b10011101 !
bUUUUUUUU "
bUUUUUUUU #
bUUUUUUUU $
b11111101 %
bUUUUUUUU &
b01 (
b11 )
b01 *
1+
1,
0.
b10011101 /
10
bUUUUUUUU 1
bUUUUUUUU 2
bUUUUUUUU 3
b01 4
b11 5
b01 6
b11111101 7
18
bUUUUUUUU ;
0<
b01 =
b11 >
b01 ?
b1101 @
0B
0C
1D
bUUUUUUUU G
bUUUUUUUU H
b11111101 I
b11111101 J
UK
bUUUUUUUU L
bUUUUUUUU M
bUUUUUUUU O
b0000 P
UQ
1U
b10011101 W
0Y
0Z
1[
b1000 ^
b10011101 _
0`
b01 a
b11 b
b01 c
b1101 d
b01 e
b0001 f
b1101 g
b11111101 h
b01 i
b11 j
b01 k
b11111101 l
1m
1n
bUUUUUUUU o
bUUUUUUUU p
b11111101 r
1z
1{
b11111101 }
1!"
1""
1%"
1&"
1)"
1*"
bUUUUUUUU ,"
bUUUUUUUU -"
U/"
bUUUUUUUU 0"
bUUUUUUUU 1"
U2"
U3"
U6"
U7"
U8"
U9"
U:"
U<"
U="
U>"
U?"
U@"
UA"
UC"
UD"
UE"
UF"
UG"
UH"
UJ"
UK"
UL"
UM"
UN"
UO"
UQ"
UR"
US"
UT"
UU"
UV"
UX"
UY"
UZ"
U["
U\"
U]"
U_"
U`"
Ua"
Ub"
Uc"
Ud"
Uf"
Ug"
Uh"
Ui"
0k"
1l"
1p"
#70000000
0+
0,
00
08
0U
0m
0z
0!"
0%"
0)"
0l"
0p"
#75000000
b11000001 !
b11111101 "
b11111101 #
b00000000 $
b00000001 %
b11111101 '
b01 (
b00 )
b00 *
1+
1,
1.
b11000001 /
10
b11111101 1
b11111101 2
b00000000 3
b01 4
b00 5
b00 6
b00000001 7
18
b11111101 :
1<
b01 =
b00 >
b00 ?
b0001 @
1A
1B
1C
0D
b11111101 G
b00000000 H
b00000001 I
b00000001 J
0K
b11111101 L
b11111101 M
b11111101 N
1U
b11000001 W
1X
1Y
1Z
0[
b0111 ^
b11000001 _
1`
b01 a
b00 b
b00 c
b0001 d
b01 e
b0001 g
b00000001 h
b01 i
b00 j
b00 k
b00000001 l
1m
0n
b11111101 o
b00000000 p
b00000001 q
b00000000 u
b11111101 v
b00000001 y
1z
0{
b00000000 |
1!"
0""
b11111101 #"
1%"
0&"
1)"
0*"
b11111101 ,"
b00000000 -"
0/"
b11111101 0"
b11111111 1"
12"
03"
16"
17"
18"
09"
0:"
1<"
0="
1>"
1?"
1@"
0A"
1C"
1D"
1E"
1F"
1G"
0H"
1J"
1K"
1L"
1M"
1N"
0O"
1Q"
1R"
1S"
1T"
1U"
0V"
1X"
1Y"
1Z"
1["
1\"
0]"
1_"
1`"
1a"
1b"
1c"
0d"
1f"
1g"
1h"
1i"
b11111101 j"
1k"
1l"
1p"
#80000000
0+
0,
00
08
0U
0m
0z
0!"
0%"
0)"
0l"
0p"
#85000000
b10100000 !
bUUUUUUUU "
bUUUUUUUU #
b00000000 %
bUUUUUUUU &
b10 (
b10 *
1+
1,
0.
b10100000 /
10
bUUUUUUUU 1
bUUUUUUUU 2
b10 4
b10 6
b00000000 7
18
bUUUUUUUU ;
0<
b10 =
b10 ?
b0000 @
0B
0C
1D
bUUUUUUUU G
b00000000 I
b00000000 J
bUUUUUUUU L
bUUUUUUUU M
bUUUUUUUU O
UQ
1U
b10100000 W
0Y
0Z
1[
b1000 ^
b10100000 _
0`
b10 a
b10 c
b0000 d
b10 e
b0000 f
b0000 g
b00000000 h
b10 i
b10 k
b00000000 l
1m
1n
bUUUUUUUU o
b00000000 s
1z
1{
1!"
1""
b00000000 $"
1%"
1&"
1)"
1*"
bUUUUUUUU ,"
bUUUUUUUU 0"
U2"
U6"
U9"
U="
U@"
UD"
UG"
UK"
UN"
UR"
UU"
UY"
U\"
U`"
Uc"
Ug"
0k"
1l"
1p"
#90000000
0+
0,
00
08
0U
0m
0z
0!"
0%"
0)"
0l"
0p"
#95000000
b11000010 !
b00000000 "
b00000000 #
b00000001 $
b00000010 %
b00000000 '
b10 (
b00 *
1+
1,
1.
b11000010 /
10
b00000000 1
b00000000 2
b00000001 3
b10 4
b00 6
b00000010 7
18
b00000000 :
1<
b10 =
b00 ?
b0010 @
1A
1B
1C
0D
b00000000 G
b00000001 H
b00000010 I
b00000010 J
0K
b11111111 L
b00000000 M
b00000000 N
1U
b11000010 W
1X
1Y
1Z
0[
b0111 ^
b11000010 _
1`
b10 a
b00 c
b0010 d
b10 e
b0010 f
b0010 g
b00000010 h
b10 i
b00 k
b00000010 l
1m
0n
b00000000 o
b00000001 p
b00000010 q
b00000001 u
b00000000 w
b00000010 y
1z
0{
b00000001 |
1!"
0""
1%"
0&"
b00000000 '"
1)"
0*"
b00000000 ,"
b00000001 -"
0/"
b11111111 0"
b00000000 1"
02"
13"
16"
07"
08"
09"
0<"
1="
0>"
0@"
0C"
1D"
0E"
0G"
0J"
1K"
0L"
0N"
0Q"
1R"
0S"
0U"
0X"
1Y"
0Z"
0\"
0_"
1`"
0a"
0c"
0f"
1g"
0h"
b00000000 j"
1k"
1l"
1p"
#100000000
0+
0,
00
08
0U
0m
0z
0!"
0%"
0)"
0l"
0p"
#105000000
b10110111 !
bUUUUUUUU "
bUUUUUUUU #
b11111101 $
b00000111 %
bUUUUUUUU &
b11 (
b01 )
b11 *
1+
1,
0.
b10110111 /
10
bUUUUUUUU 1
bUUUUUUUU 2
b11111101 3
b11 4
b01 5
b11 6
b00000111 7
18
bUUUUUUUU ;
0<
b11 =
b01 >
b11 ?
b0111 @
0B
0C
1D
bUUUUUUUU G
b11111101 H
b00000111 I
b00000111 J
UK
bUUUUUUUU L
bUUUUUUUU M
bUUUUUUUU O
b0111 P
UQ
1U
b10110111 W
0Y
0Z
1[
b1000 ^
b10110111 _
0`
b11 a
b01 b
b11 c
b0111 d
b11 e
b0011 f
b0111 g
b00000111 h
b11 i
b01 j
b11 k
b00000111 l
1m
1n
bUUUUUUUU o
b11111101 p
b00000111 t
1z
1{
1!"
1""
1%"
1&"
b00000111 ("
1)"
1*"
bUUUUUUUU ,"
b11111101 -"
U/"
bUUUUUUUU 0"
bUUUUUUUU 1"
U2"
U6"
U7"
U9"
U<"
U="
U>"
U@"
1A"
UC"
UD"
UE"
0F"
UG"
1H"
UJ"
UK"
UL"
0M"
UN"
1O"
UQ"
UR"
US"
0T"
UU"
1V"
UX"
UY"
UZ"
0["
U\"
1]"
U_"
U`"
Ua"
0b"
Uc"
1d"
Uf"
Ug"
Uh"
0i"
0k"
1l"
1p"
#110000000
0+
0,
00
08
0U
0m
0z
0!"
0%"
0)"
0l"
0p"
#115000000
b11000011 !
b00000111 "
b00000111 #
b00000010 $
b00000011 %
b00000111 '
b11 (
b00 )
b00 *
1+
1,
1.
b11000011 /
10
b00000111 1
b00000111 2
b00000010 3
b11 4
b00 5
b00 6
b00000011 7
18
b00000111 :
1<
b11 =
b00 >
b00 ?
b0011 @
1A
1B
1C
0D
b00000111 G
b00000010 H
b00000011 I
b00000011 J
0K
b00000101 L
b00000111 M
b00000111 N
1U
b11000011 W
1X
1Y
1Z
0[
b0111 ^
b11000011 _
1`
b11 a
b00 b
b00 c
b0011 d
b11 e
b0011 g
b00000011 h
b11 i
b00 j
b00 k
b00000011 l
1m
0n
b00000111 o
b00000010 p
b00000011 q
b00000010 u
b00000111 x
b00000011 y
1z
0{
b00000010 |
1!"
0""
1%"
0&"
1)"
0*"
b00000111 +"
b00000111 ,"
b00000010 -"
0/"
b00000101 0"
b11111111 1"
12"
03"
16"
17"
18"
19"
1:"
1<"
0="
1>"
0?"
1@"
0A"
1C"
1D"
1E"
1F"
0G"
0H"
1J"
0K"
1L"
1M"
0N"
0O"
1Q"
0R"
1S"
1T"
0U"
0V"
1X"
0Y"
1Z"
1["
0\"
0]"
1_"
0`"
1a"
1b"
0c"
0d"
1f"
0g"
1h"
1i"
b00000111 j"
1k"
1l"
1p"
#120000000
0+
0,
00
08
0U
0m
0z
0!"
0%"
0)"
0l"
0p"
#125000000
b10001000 !
b00000010 "
b00000010 #
b00000000 $
b11111000 %
b00000010 &
b00 (
b10 )
1+
1,
0.
b10001000 /
10
b00000010 1
b00000010 2
b00000000 3
b00 4
b10 5
b11111000 7
18
b00000010 ;
0<
b00 =
b10 >
b1000 @
0B
0C
1D
b00000010 G
b00000000 H
b11111000 I
b11111000 J
b00000010 L
b00000010 M
b00000010 O
b0000 P
0Q
1U
b10001000 W
0Y
0Z
1[
b1000 ^
b10001000 _
0`
b00 a
b10 b
b1000 d
b00 e
b0000 f
b1000 g
b11111000 h
b00 i
b10 j
b11111000 l
1m
1n
b00000010 o
b00000000 p
b11111000 q
b11111000 y
1z
1{
1!"
1""
1%"
1&"
1)"
1*"
b00000010 ,"
b00000000 -"
b00000010 0"
02"
06"
0:"
1="
1?"
0@"
0D"
0k"
1l"
1p"
#130000000
0+
0,
00
08
0U
0m
0z
0!"
0%"
0)"
0l"
0p"
#135000000
b11000000 !
b11111000 "
b11111000 #
b11111000 $
b00000000 %
b11111000 '
b00 )
1+
1,
1.
b11000000 /
10
b11111000 1
b11111000 2
b11111000 3
b00 5
b00000000 7
18
b11111000 :
1<
b00 >
b0000 @
1A
1B
1C
0D
b11111000 G
b11111000 H
b00000000 I
b00000000 J
b00000000 L
b11111000 M
b11111000 N
1U
b11000000 W
1X
1Y
1Z
0[
b0111 ^
b11000000 _
1`
b00 b
b0000 d
b0000 g
b00000000 h
b00 j
b00000000 l
1m
0n
b11111000 o
b11111000 p
b00000000 q
b11111000 u
b00000000 y
1z
0{
b11111000 |
1!"
0""
1%"
0&"
1)"
0*"
b11111000 ,"
b11111000 -"
b00000000 0"
09"
0="
1G"
1H"
0K"
0M"
1N"
1O"
0R"
0T"
1U"
1V"
0Y"
0["
1\"
1]"
0`"
0b"
1c"
1d"
0g"
0i"
b11111000 j"
1k"
1l"
1p"
#140000000
0+
0,
00
08
0U
0m
0z
0!"
0%"
0)"
0l"
0p"
#145000000
b00011001 !
b11111101 "
b00000000 #
b11111101 $
b11111101 %
b11111101 &
b10 (
b01 )
b01 *
1+
1,
0.
b00011001 /
10
b11111101 1
b00000000 2
b11111101 3
b10 4
b01 5
b01 6
b11111101 7
18
b11111101 ;
0<
b10 =
b01 >
b01 ?
b1001 @
0A
0B
0C
1D
0E
1F
b00000000 G
b11111101 H
b11111001 I
b11111101 J
0K
b11111101 L
b11111101 M
b11111101 O
b0000 P
0Q
1U
b00011001 W
0X
0Y
0Z
1[
0\
1]
b0000 ^
b00011001 _
0`
b10 a
b01 b
b01 c
b1001 d
b01 e
b0001 f
b1001 g
b11111001 h
b10 i
b01 j
b01 k
b11111101 l
1m
1n
b00000000 o
b11111101 p
b11111101 r
1z
1{
b11111101 }
1!"
1""
1%"
1&"
1)"
1*"
b00000000 ,"
b11111101 -"
0."
0/"
b11111101 0"
b00000000 1"
13"
04"
05"
16"
07"
18"
0;"
0<"
0>"
0?"
1A"
0B"
0C"
1D"
0E"
1F"
0G"
0I"
0J"
1K"
0L"
1M"
0N"
0P"
0Q"
1R"
0S"
1T"
0U"
0W"
0X"
1Y"
0Z"
1["
0\"
0^"
0_"
1`"
0a"
1b"
0c"
0e"
0f"
1g"
0h"
1i"
0k"
1l"
1p"
#150000000
0+
0,
00
08
0U
0m
0z
0!"
0%"
0)"
0l"
0p"
#155000000
b11000001 !
b11111101 "
b11111101 #
b00000000 $
b00000001 %
b11111101 '
b01 (
b00 )
b00 *
1+
1,
1.
b11000001 /
10
b11111101 1
b11111101 2
b00000000 3
b01 4
b00 5
b00 6
b00000001 7
18
b11111101 :
1<
b01 =
b00 >
b00 ?
b0001 @
1A
1B
1C
0D
1E
0F
b11111101 G
b00000000 H
b00000001 I
b00000001 J
b11111101 L
b11111101 M
b11111101 N
1U
b11000001 W
1X
1Y
1Z
0[
1\
0]
b0111 ^
b11000001 _
1`
b01 a
b00 b
b00 c
b0001 d
b01 e
b0001 g
b00000001 h
b01 i
b00 j
b00 k
b00000001 l
1m
0n
b11111101 o
b00000000 p
b00000001 q
b00000000 u
b00000001 y
1z
0{
b00000000 |
1!"
0""
1%"
0&"
1)"
0*"
b11111101 ,"
b00000000 -"
1."
b11111101 0"
b11111111 1"
12"
03"
14"
15"
16"
17"
18"
1;"
1<"
1>"
1?"
1@"
0A"
1B"
1C"
1D"
1E"
1F"
1G"
0H"
1I"
1J"
1K"
1L"
1M"
1N"
0O"
1P"
1Q"
1S"
1T"
1U"
0V"
1W"
1X"
1Y"
1Z"
1["
1\"
0]"
1^"
1_"
1`"
1a"
1b"
1c"
0d"
1e"
1f"
1g"
1h"
1i"
b11111101 j"
1k"
1l"
1p"
#160000000
0+
0,
00
08
0U
0m
0z
0!"
0%"
0)"
0l"
0p"
#165000000
b00101101 !
b00000100 "
b00000111 #
b11111101 $
b00000100 %
b00000100 &
b11 (
b01 )
b10 *
1+
1,
0.
b00101101 /
10
b00000100 1
b00000111 2
b11111101 3
b11 4
b01 5
b10 6
b00000100 7
18
b00000100 ;
0<
b11 =
b01 >
b10 ?
b1101 @
0A
0B
0C
1D
0E
1F
b00000111 G
b11111101 H
b11111101 I
b00000100 J
0K
b00000100 L
b00000100 M
b00000100 O
1U
b00101101 W
0X
0Y
0Z
1[
0\
1]
b0000 ^
b00101101 _
0`
b11 a
b01 b
b10 c
b1101 d
b10 e
b1101 g
b11111101 h
b11 i
b01 j
b10 k
b00000100 l
1m
1n
b00000111 o
b11111101 p
b00000100 s
1z
1{
1!"
1""
b00000100 $"
1%"
1&"
1)"
1*"
b00000111 ,"
b11111101 -"
0."
0/"
b00000100 0"
b11111111 1"
13"
04"
05"
06"
17"
18"
19"
0;"
1<"
0="
1>"
0?"
1A"
0B"
1C"
1D"
1F"
0G"
1H"
0I"
0K"
1L"
1M"
0N"
1O"
0P"
1Q"
0R"
1S"
1T"
0U"
1V"
0W"
1X"
0Y"
1Z"
1["
0\"
1]"
0^"
1_"
0`"
1a"
1b"
0c"
1d"
0e"
1f"
0g"
1h"
1i"
0k"
1l"
1p"
#170000000
0+
0,
00
08
0U
0m
0z
0!"
0%"
0)"
0l"
0p"
#175000000
b11000010 !
b00000100 "
b00000100 #
b00000001 $
b00000010 %
b00000100 '
b10 (
b00 )
b00 *
1+
1,
1.
b11000010 /
10
b00000100 1
b00000100 2
b00000001 3
b10 4
b00 5
b00 6
b00000010 7
18
b00000100 :
1<
b10 =
b00 >
b00 ?
b0010 @
1A
1B
1C
0D
1E
0F
b00000100 G
b00000001 H
b00000010 I
b00000010 J
0K
b00000011 L
b00000100 M
b00000100 N
1U
b11000010 W
1X
1Y
1Z
0[
1\
0]
b0111 ^
b11000010 _
1`
b10 a
b00 b
b00 c
b0010 d
b10 e
b0010 f
b0010 g
b00000010 h
b10 i
b00 j
b00 k
b00000010 l
1m
0n
b00000100 o
b00000001 p
b00000010 q
b00000001 u
b00000100 w
b00000010 y
1z
0{
b00000001 |
1!"
0""
1%"
0&"
b00000100 '"
1)"
0*"
b00000100 ,"
b00000001 -"
1."
0/"
b00000011 0"
b11111100 1"
02"
14"
15"
16"
07"
08"
09"
1;"
0<"
1="
0>"
1?"
1@"
0A"
1B"
0C"
0D"
1E"
1F"
0H"
1I"
1J"
0K"
1L"
1M"
0O"
1P"
1Q"
0R"
1S"
1T"
0V"
1W"
1X"
0Y"
1Z"
1["
0]"
1^"
1_"
0`"
1a"
1b"
0d"
1e"
1f"
0g"
1h"
1i"
b00000100 j"
1k"
1l"
1p"
#180000000
0+
0,
00
08
0U
0m
0z
0!"
0%"
0)"
0l"
0p"
#185000000
b00111110 !
b00001011 "
b00000111 #
b00000100 $
b00001011 %
b00001011 &
b11 (
b10 )
b11 *
1+
1,
0.
b00111110 /
10
b00001011 1
b00000111 2
b00000100 3
b11 4
b10 5
b11 6
b00001011 7
18
b00001011 ;
0<
b11 =
b10 >
b11 ?
b1110 @
0A
0B
0C
1D
0E
1F
b00000111 G
b00000100 H
b11111110 I
b00001011 J
b00001011 L
b00001011 M
b00001011 O
1U
b00111110 W
0X
0Y
0Z
1[
0\
1]
b0000 ^
b00111110 _
0`
b11 a
b10 b
b11 c
b1110 d
b11 e
b1110 g
b11111110 h
b11 i
b10 j
b11 k
b00001011 l
1m
1n
b00000111 o
b00000100 p
b00001011 t
1z
1{
1!"
1""
1%"
1&"
b00001011 ("
1)"
1*"
b00000111 ,"
b00000100 -"
0."
b00001011 0"
b00000100 1"
12"
03"
04"
05"
16"
07"
08"
19"
0;"
0<"
1="
0>"
0?"
1A"
0B"
0C"
0D"
1E"
1F"
0I"
1J"
1K"
0L"
0M"
0P"
0Q"
0R"
0S"
0T"
0W"
0X"
0Y"
0Z"
0["
0^"
0_"
0`"
0a"
0b"
0e"
0f"
0g"
0h"
0i"
0k"
1l"
1p"
#190000000
0+
0,
00
08
0U
0m
0z
0!"
0%"
0)"
0l"
0p"
