calc.vcd
$date
  Thu Apr 26 21:28:27 2018
$end
$version
  GHDL v0
$end
$timescale
  1 fs
$end
$var reg 8 ! i[7:0] $end
$var reg 8 " poop[7:0] $end
$var reg 8 # poopo1[7:0] $end
$var reg 8 $ poopo2[7:0] $end
$var reg 8 % pwb[7:0] $end
$var reg 8 & plb[7:0] $end
$var reg 8 ' pp[7:0] $end
$var reg 2 ( poopr1[1:0] $end
$var reg 2 ) poopr2[1:0] $end
$var reg 2 * prd[1:0] $end
$var reg 1 + clk $end
$var reg 1 , pre $end
$var reg 1 - pout $end
$var reg 1 . prt $end
$var reg 1 / pintemp $end
$var reg 1 0 psc $end
$var reg 1 1 pdb $end
$var reg 1 2 ptemp2 $end
$var reg 4 3 psval[3:0] $end
$var reg 4 4 pposts[3:0] $end
$scope module c1 $end
$var reg 8 5 i[7:0] $end
$var reg 1 6 clk $end
$var reg 8 7 poop[7:0] $end
$var reg 8 8 poopo1[7:0] $end
$var reg 8 9 poopo2[7:0] $end
$var reg 2 : poopr1[1:0] $end
$var reg 2 ; poopr2[1:0] $end
$var reg 2 < prd[1:0] $end
$var reg 8 = pwb[7:0] $end
$var reg 1 > pre $end
$var reg 1 ? pout $end
$var reg 8 @ pp[7:0] $end
$var reg 8 A plb[7:0] $end
$var reg 1 B prt $end
$var reg 1 C pintemp $end
$var reg 4 D psv[3:0] $end
$var reg 1 E psc $end
$var reg 4 F pposts[3:0] $end
$var reg 1 G pdb $end
$var reg 1 H ptemp2 $end
$var reg 2 I r1[1:0] $end
$var reg 2 J r2[1:0] $end
$var reg 2 K rd[1:0] $end
$var reg 4 L imm[3:0] $end
$var reg 1 M aluskip $end
$var reg 1 N pt $end
$var reg 1 O dispbeq $end
$var reg 1 P regwrite $end
$var reg 1 Q addsub $end
$var reg 1 R load $end
$var reg 8 S o1[7:0] $end
$var reg 8 T o2[7:0] $end
$var reg 8 U ext[7:0] $end
$var reg 8 V wb[7:0] $end
$var reg 1 W f $end
$var reg 8 X sum[7:0] $end
$var reg 8 Y aluo[7:0] $end
$var reg 8 Z p[7:0] $end
$var reg 8 [ lb[7:0] $end
$var reg 4 \ skipval[3:0] $end
$var reg 1 ] skipcontrol $end
$var reg 1 ^ outskip $end
$var reg 4 _ inskip[3:0] $end
$var reg 4 ` postskip[3:0] $end
$var reg 1 a renable $end
$var reg 1 b intemp $end
$var reg 1 c printenable $end
$var reg 1 d temp2 $end
$scope module con $end
$var reg 8 e i[7:0] $end
$var reg 1 f aluskip $end
$var reg 1 g print $end
$var reg 1 h dispbeq $end
$var reg 1 i regwrite $end
$var reg 1 j addsub $end
$var reg 1 k load $end
$var reg 4 l s[3:0] $end
$upscope $end
$scope module id $end
$var reg 8 m i[7:0] $end
$var reg 1 n consig $end
$var reg 2 o r1[1:0] $end
$var reg 2 p r2[1:0] $end
$var reg 2 q rd[1:0] $end
$var reg 4 r imm[3:0] $end
$var reg 2 s s1[1:0] $end
$var reg 4 t s2[3:0] $end
$upscope $end
$scope module se $end
$var reg 4 u i[3:0] $end
$var reg 8 v o[7:0] $end
$upscope $end
$scope module reg $end
$var reg 2 w r1[1:0] $end
$var reg 2 x r2[1:0] $end
$var reg 2 y rd[1:0] $end
$var reg 8 z wb[7:0] $end
$var reg 1 { clk $end
$var reg 1 | enable $end
$var reg 8 } o1[7:0] $end
$var reg 8 !" o2[7:0] $end
$var reg 8 "" v0[7:0] $end
$var reg 8 #" v1[7:0] $end
$var reg 8 $" v2[7:0] $end
$var reg 8 %" v3[7:0] $end
$var reg 8 &" t0[7:0] $end
$var reg 8 '" t1[7:0] $end
$var reg 8 (" t2[7:0] $end
$var reg 8 )" t3[7:0] $end
$scope module ff0 $end
$var reg 8 *" d[7:0] $end
$var reg 1 +" clk $end
$var reg 1 ," enable $end
$var reg 8 -" q[7:0] $end
$upscope $end
$scope module ff1 $end
$var reg 8 ." d[7:0] $end
$var reg 1 /" clk $end
$var reg 1 0" enable $end
$var reg 8 1" q[7:0] $end
$upscope $end
$scope module ff2 $end
$var reg 8 2" d[7:0] $end
$var reg 1 3" clk $end
$var reg 1 4" enable $end
$var reg 8 5" q[7:0] $end
$upscope $end
$scope module ff3 $end
$var reg 8 6" d[7:0] $end
$var reg 1 7" clk $end
$var reg 1 8" enable $end
$var reg 8 9" q[7:0] $end
$upscope $end
$upscope $end
$scope module alu $end
$var reg 8 :" a[7:0] $end
$var reg 8 ;" b[7:0] $end
$var reg 1 <" mode $end
$var reg 1 =" flow $end
$var reg 8 >" s[7:0] $end
$var reg 8 ?" c[7:0] $end
$scope module fa1 $end
$var reg 1 @" i1 $end
$var reg 1 A" i2 $end
$var reg 1 B" m $end
$var reg 1 C" cin $end
$var reg 1 D" sum $end
$var reg 1 E" cout $end
$var reg 1 F" x $end
$upscope $end
$scope module fa2 $end
$var reg 1 G" i1 $end
$var reg 1 H" i2 $end
$var reg 1 I" m $end
$var reg 1 J" cin $end
$var reg 1 K" sum $end
$var reg 1 L" cout $end
$var reg 1 M" x $end
$upscope $end
$scope module fa3 $end
$var reg 1 N" i1 $end
$var reg 1 O" i2 $end
$var reg 1 P" m $end
$var reg 1 Q" cin $end
$var reg 1 R" sum $end
$var reg 1 S" cout $end
$var reg 1 T" x $end
$upscope $end
$scope module fa4 $end
$var reg 1 U" i1 $end
$var reg 1 V" i2 $end
$var reg 1 W" m $end
$var reg 1 X" cin $end
$var reg 1 Y" sum $end
$var reg 1 Z" cout $end
$var reg 1 [" x $end
$upscope $end
$scope module fa5 $end
$var reg 1 \" i1 $end
$var reg 1 ]" i2 $end
$var reg 1 ^" m $end
$var reg 1 _" cin $end
$var reg 1 `" sum $end
$var reg 1 a" cout $end
$var reg 1 b" x $end
$upscope $end
$scope module fa6 $end
$var reg 1 c" i1 $end
$var reg 1 d" i2 $end
$var reg 1 e" m $end
$var reg 1 f" cin $end
$var reg 1 g" sum $end
$var reg 1 h" cout $end
$var reg 1 i" x $end
$upscope $end
$scope module fa7 $end
$var reg 1 j" i1 $end
$var reg 1 k" i2 $end
$var reg 1 l" m $end
$var reg 1 m" cin $end
$var reg 1 n" sum $end
$var reg 1 o" cout $end
$var reg 1 p" x $end
$upscope $end
$scope module fa8 $end
$var reg 1 q" i1 $end
$var reg 1 r" i2 $end
$var reg 1 s" m $end
$var reg 1 t" cin $end
$var reg 1 u" sum $end
$var reg 1 v" cout $end
$var reg 1 w" x $end
$upscope $end
$upscope $end
$scope module p1 $end
$var reg 8 x" i[7:0] $end
$var reg 1 y" en $end
$var reg 1 z" clk $end
$upscope $end
$scope module sr $end
$var reg 4 {" i[3:0] $end
$var reg 1 |" i_shift_in $end
$var reg 2 }" sel[1:0] $end
$var reg 1 !# clock $end
$var reg 1 "# enable $end
$var reg 4 ## o[3:0] $end
$upscope $end
$upscope $end
$enddefinitions $end
#0
bUUUUUUUU !
bUUUUUUUU "
bUUUUUUUU #
bUUUUUUUU $
bUUUUUUUU %
bUUUUUUUU &
bUUUUUUUU '
bUU (
bUU )
bUU *
0+
0,
U-
U.
0/
U0
U1
U2
bUUUU 3
bUUUU 4
bUUUUUUUU 5
06
bUUUUUUUU 7
bUUUUUUUU 8
bUUUUUUUU 9
bUU :
bUU ;
bUU <
bUUUUUUUU =
0>
U?
bUUUUUUUU @
bUUUUUUUU A
UB
0C
bUUUU D
UE
bUUUU F
UG
UH
bUU I
bUU J
bUU K
bUUUU L
UM
UN
UO
UP
UQ
UR
bUUUUUUUU S
bUUUUUUUU T
bUUUUUUUU U
bUUUUUUUU V
UW
bUUUUUUUU X
bUUUUUUUU Y
bUUUUUUUU Z
bUUUUUUUU [
bUUUU \
U]
U^
bUUUU _
bUUUU `
0a
0b
Uc
Ud
bUUUUUUUU e
Uf
Ug
Uh
Ui
Uj
Uk
bUUUU l
bUUUUUUUU m
Un
bUU o
bUU p
bUU q
bUUUU r
bUU s
bUUUU t
bUUUU u
bUUUUUUUU v
bUU w
bUU x
bUU y
bUUUUUUUU z
0{
U|
bUUUUUUUU }
bUUUUUUUU !"
bUUUUUUUU ""
bUUUUUUUU #"
bUUUUUUUU $"
bUUUUUUUU %"
bUUUUUUUU &"
bUUUUUUUU '"
bUUUUUUUU ("
bUUUUUUUU )"
bUUUUUUUU *"
0+"
U,"
bUUUUUUUU -"
bUUUUUUUU ."
0/"
U0"
bUUUUUUUU 1"
bUUUUUUUU 2"
03"
U4"
bUUUUUUUU 5"
bUUUUUUUU 6"
07"
U8"
bUUUUUUUU 9"
bUUUUUUUU :"
bUUUUUUUU ;"
U<"
U="
bUUUUUUUU >"
bUUUUUUUU ?"
U@"
UA"
UB"
UC"
UD"
UE"
UF"
UG"
UH"
UI"
UJ"
UK"
UL"
UM"
UN"
UO"
UP"
UQ"
UR"
US"
UT"
UU"
UV"
UW"
UX"
UY"
UZ"
U["
U\"
U]"
U^"
U_"
U`"
Ua"
Ub"
Uc"
Ud"
Ue"
Uf"
Ug"
Uh"
Ui"
Uj"
Uk"
Ul"
Um"
Un"
Uo"
Up"
Uq"
Ur"
Us"
Ut"
Uu"
Uv"
Uw"
bUUUUUUUU x"
Uy"
0z"
bUUUU {"
0|"
b10 }"
0!#
U"#
bUUUU ##
#5000000
b11000000 !
b00000000 %
b00 (
b00 )
b00 *
1+
1,
1.
11
b11000000 5
16
b00 :
b00 ;
b00 <
b00000000 =
1>
1B
1G
b00 I
b00 J
b00 K
b0000 L
1M
1N
1O
0P
1Q
0R
b00000000 U
b00000000 V
b0000 _
1a
1c
b11000000 e
1f
1g
1h
0i
1j
0k
b0111 l
b11000000 m
1n
b00 o
b00 p
b00 q
b0000 r
b00 s
b0000 t
b0000 u
b00000000 v
b00 w
b00 x
b00 y
b00000000 z
1{
0|
1+"
0,"
1/"
00"
13"
04"
17"
08"
1<"
1B"
1C"
1I"
1P"
1W"
1^"
1e"
1l"
1s"
1y"
1z"
b0000 {"
1!#
#10000000
0+
0,
06
0>
0a
0{
0+"
0/"
03"
07"
0z"
0!#
#15000000
b11000001 !
b00000001 %
b01 (
1+
1,
b11000001 5
16
b01 :
b00000001 =
1>
b01 I
b0001 L
b00000001 U
b00000001 V
b0001 _
1a
b11000001 e
b11000001 m
b01 o
b0001 r
b01 s
b0001 t
b0001 u
b00000001 v
b01 w
b00000001 z
1{
1+"
1/"
13"
17"
1z"
b0001 {"
1!#
#20000000
0+
0,
06
0>
0a
0{
0+"
0/"
03"
07"
0z"
0!#
#25000000
b11000010 !
b00000010 %
b10 (
1+
1,
b11000010 5
16
b10 :
b00000010 =
1>
b10 I
b0010 L
b00000010 U
b00000010 V
b0010 _
1a
b11000010 e
b11000010 m
b10 o
b0010 r
b10 s
b0010 t
b0010 u
b00000010 v
b10 w
b00000010 z
1{
1+"
1/"
13"
17"
1z"
b0010 {"
1!#
#30000000
0+
0,
06
0>
0a
0{
0+"
0/"
03"
07"
0z"
0!#
#35000000
b11000011 !
b00000011 %
b11 (
1+
1,
b11000011 5
16
b11 :
b00000011 =
1>
b11 I
b0011 L
b00000011 U
b00000011 V
b0011 _
1a
b11000011 e
b11000011 m
b11 o
b0011 r
b11 s
b0011 t
b0011 u
b00000011 v
b11 w
b00000011 z
1{
1+"
1/"
13"
17"
1z"
b0011 {"
1!#
#40000000
0+
0,
06
0>
0a
0{
0+"
0/"
03"
07"
0z"
0!#
#45000000
b10000101 !
b00000101 %
b00 (
b01 )
1+
1,
0.
00
01
b0000 3
b10000101 5
16
b00 :
b01 ;
b00000101 =
1>
0B
b0000 D
0E
0G
b00 I
b01 J
b0101 L
0N
0O
1P
b00000101 U
b00000101 V
b0000 \
0]
b0101 _
1a
0c
b10000101 e
0g
0h
1i
b1000 l
b10000101 m
0n
b00 o
b01 p
b0101 r
b00 s
b0001 t
b0101 u
b00000101 v
b00 w
b01 x
b00000101 z
1{
1|
b00000101 ""
b00000101 *"
1+"
1,"
1/"
10"
13"
14"
17"
18"
0y"
1z"
b0101 {"
1!#
0"#
#50000000
0+
0,
06
0>
0a
0{
0+"
0/"
03"
07"
0z"
0!#
#55000000
b11000000 !
b00000101 "
b00000101 #
b00000101 $
b00000000 %
b00000101 '
b00 )
1+
1,
1.
U0
11
b11000000 5
16
b00000101 7
b00000101 8
b00000101 9
b00 ;
b00000000 =
1>
b00000101 @
1B
UE
1G
b00 J
b0000 L
1M
1N
1O
0P
b00000101 S
b00000101 T
b00000000 U
b00000000 V
0W
b00000000 X
b00000101 Y
b00000101 Z
U]
b0000 _
1a
1c
b11000000 e
1f
1g
1h
0i
b0111 l
b11000000 m
1n
b00 p
b0000 r
b0000 t
b0000 u
b00000000 v
b00 x
b00000000 z
1{
0|
b00000101 }
b00000101 !"
b00000101 &"
1+"
0,"
b00000101 -"
1/"
00"
13"
04"
17"
08"
b00000101 :"
b00000101 ;"
0="
b00000000 >"
b11111111 ?"
1@"
1A"
0D"
1E"
0F"
0G"
0H"
1J"
0K"
1L"
1M"
1N"
1O"
1Q"
0R"
1S"
0T"
0U"
0V"
1X"
0Y"
1Z"
1["
0\"
0]"
1_"
0`"
1a"
1b"
0c"
0d"
1f"
0g"
1h"
1i"
0j"
0k"
1m"
0n"
1o"
1p"
0q"
0r"
1t"
0u"
1v"
1w"
b00000101 x"
1y"
1z"
b0000 {"
1!#
U"#
#60000000
0+
0,
06
0>
0a
0{
0+"
0/"
03"
07"
0z"
0!#
#65000000
b10011101 !
bUUUUUUUU "
bUUUUUUUU #
bUUUUUUUU $
b11111101 %
bUUUUUUUU &
b01 (
b11 )
b01 *
1+
1,
0.
00
01
U2
b10011101 5
16
bUUUUUUUU 7
bUUUUUUUU 8
bUUUUUUUU 9
b01 :
b11 ;
b01 <
b11111101 =
1>
bUUUUUUUU A
0B
0E
0G
UH
b01 I
b11 J
b01 K
b1101 L
0N
0O
1P
bUUUUUUUU S
bUUUUUUUU T
b11111101 U
b11111101 V
UW
bUUUUUUUU X
bUUUUUUUU Y
bUUUUUUUU [
0]
b1101 _
1a
0c
Ud
b10011101 e
0g
0h
1i
b1000 l
b10011101 m
0n
b01 o
b11 p
b01 q
b1101 r
b01 s
b0001 t
b1101 u
b11111101 v
b01 w
b11 x
b01 y
b11111101 z
1{
1|
bUUUUUUUU }
bUUUUUUUU !"
b11111101 #"
1+"
1,"
b11111101 ."
1/"
10"
13"
14"
17"
18"
bUUUUUUUU :"
bUUUUUUUU ;"
U="
bUUUUUUUU >"
bUUUUUUUU ?"
U@"
UA"
UD"
UE"
UF"
UG"
UH"
UJ"
UK"
UL"
UM"
UN"
UO"
UQ"
UR"
US"
UT"
UU"
UV"
UX"
UY"
UZ"
U["
U\"
U]"
U_"
U`"
Ua"
Ub"
Uc"
Ud"
Uf"
Ug"
Uh"
Ui"
Uj"
Uk"
Um"
Un"
Uo"
Up"
Uq"
Ur"
Ut"
Uu"
Uv"
Uw"
0y"
1z"
b1101 {"
1!#
0"#
#70000000
0+
0,
06
0>
0a
0{
0+"
0/"
03"
07"
0z"
0!#
#75000000
b11000001 !
b11111101 "
b11111101 #
b00000101 $
b00000001 %
b11111101 '
b01 (
b00 )
b00 *
1+
1,
1.
U0
11
b11000001 5
16
b11111101 7
b11111101 8
b00000101 9
b01 :
b00 ;
b00 <
b00000001 =
1>
b11111101 @
1B
UE
1G
b01 I
b00 J
b00 K
b0001 L
1M
1N
1O
0P
b11111101 S
b00000101 T
b00000001 U
b00000001 V
0W
b11111000 X
b11111101 Y
b11111101 Z
U]
b0001 _
1a
1c
b11000001 e
1f
1g
1h
0i
b0111 l
b11000001 m
1n
b01 o
b00 p
b00 q
b0001 r
b01 s
b0001 u
b00000001 v
b01 w
b00 x
b00 y
b00000001 z
1{
0|
b11111101 }
b00000101 !"
b11111101 '"
1+"
0,"
1/"
00"
b11111101 1"
13"
04"
17"
08"
b11111101 :"
b00000101 ;"
0="
b11111000 >"
b11111111 ?"
1@"
1A"
0D"
1E"
0F"
0G"
0H"
1J"
0K"
1L"
1M"
1N"
1O"
1Q"
0R"
1S"
0T"
1U"
0V"
1X"
1Y"
1Z"
1["
1\"
0]"
1_"
1`"
1a"
1b"
1c"
0d"
1f"
1g"
1h"
1i"
1j"
0k"
1m"
1n"
1o"
1p"
1q"
0r"
1t"
1u"
1v"
1w"
b11111101 x"
1y"
1z"
b0001 {"
1!#
U"#
#80000000
0+
0,
06
0>
0a
0{
0+"
0/"
03"
07"
0z"
0!#
#85000000
b10100000 !
bUUUUUUUU "
bUUUUUUUU #
b00000000 %
bUUUUUUUU &
b10 (
b10 *
1+
1,
0.
00
01
U2
b10100000 5
16
bUUUUUUUU 7
bUUUUUUUU 8
b10 :
b10 <
b00000000 =
1>
bUUUUUUUU A
0B
0E
0G
UH
b10 I
b10 K
b0000 L
0N
0O
1P
bUUUUUUUU S
b00000000 U
b00000000 V
UW
bUUUUUUUU X
bUUUUUUUU Y
bUUUUUUUU [
0]
b0000 _
1a
0c
Ud
b10100000 e
0g
0h
1i
b1000 l
b10100000 m
0n
b10 o
b10 q
b0000 r
b10 s
b0000 t
b0000 u
b00000000 v
b10 w
b10 y
b00000000 z
1{
1|
bUUUUUUUU }
b00000000 $"
1+"
1,"
1/"
10"
b00000000 2"
13"
14"
17"
18"
bUUUUUUUU :"
U="
bUUUUUUUU >"
bUUUUUUUU ?"
U@"
UD"
UE"
UG"
UJ"
UK"
UL"
UN"
UQ"
UR"
US"
UU"
UX"
UY"
UZ"
U\"
U_"
U`"
Ua"
Uc"
Uf"
Ug"
Uh"
Uj"
Um"
Un"
Uo"
Uq"
Ut"
Uu"
Uv"
0y"
1z"
b0000 {"
1!#
0"#
#90000000
0+
0,
06
0>
0a
0{
0+"
0/"
03"
07"
0z"
0!#
#95000000
b11000010 !
b00000000 "
b00000000 #
b00000010 %
b00000000 '
b10 (
b00 *
1+
1,
1.
U0
11
b11000010 5
16
b00000000 7
b00000000 8
b10 :
b00 <
b00000010 =
1>
b00000000 @
1B
UE
1G
b10 I
b00 K
b0010 L
1M
1N
1O
0P
b00000000 S
b00000010 U
b00000010 V
0W
b11111011 X
b00000000 Y
b00000000 Z
U]
b0010 _
1a
1c
b11000010 e
1f
1g
1h
0i
b0111 l
b11000010 m
1n
b10 o
b00 q
b0010 r
b10 s
b0010 t
b0010 u
b00000010 v
b10 w
b00 y
b00000010 z
1{
0|
b00000000 }
b00000000 ("
1+"
0,"
1/"
00"
13"
04"
b00000000 5"
17"
08"
b00000000 :"
0="
b11111011 >"
b00000000 ?"
0@"
1D"
0E"
0G"
0J"
1K"
0L"
0N"
0Q"
0R"
0S"
0U"
0X"
1Y"
0Z"
0\"
0_"
1`"
0a"
0c"
0f"
1g"
0h"
0j"
0m"
1n"
0o"
0q"
0t"
1u"
0v"
b00000000 x"
1y"
1z"
b0010 {"
1!#
U"#
#100000000
0+
0,
06
0>
0a
0{
0+"
0/"
03"
07"
0z"
0!#
#105000000
b10110111 !
bUUUUUUUU "
bUUUUUUUU #
b11111101 $
b00000111 %
bUUUUUUUU &
b11 (
b01 )
b11 *
1+
1,
0.
00
01
U2
b10110111 5
16
bUUUUUUUU 7
bUUUUUUUU 8
b11111101 9
b11 :
b01 ;
b11 <
b00000111 =
1>
bUUUUUUUU A
0B
0E
0G
UH
b11 I
b01 J
b11 K
b0111 L
0N
0O
1P
bUUUUUUUU S
b11111101 T
b00000111 U
b00000111 V
UW
bUUUUUUUU X
bUUUUUUUU Y
bUUUUUUUU [
0]
b0111 _
1a
0c
Ud
b10110111 e
0g
0h
1i
b1000 l
b10110111 m
0n
b11 o
b01 p
b11 q
b0111 r
b11 s
b0011 t
b0111 u
b00000111 v
b11 w
b01 x
b11 y
b00000111 z
1{
1|
bUUUUUUUU }
b11111101 !"
b00000111 %"
1+"
1,"
1/"
10"
13"
14"
b00000111 6"
17"
18"
bUUUUUUUU :"
b11111101 ;"
U="
bUUUUUUUU >"
bUUUUUUUU ?"
U@"
UD"
UE"
UG"
UJ"
UK"
UL"
UN"
UQ"
UR"
US"
UU"
1V"
UX"
UY"
UZ"
0["
U\"
1]"
U_"
U`"
Ua"
0b"
Uc"
1d"
Uf"
Ug"
Uh"
0i"
Uj"
1k"
Um"
Un"
Uo"
0p"
Uq"
1r"
Ut"
Uu"
Uv"
0w"
0y"
1z"
b0111 {"
1!#
0"#
#110000000
0+
0,
06
0>
0a
0{
0+"
0/"
03"
07"
0z"
0!#
#115000000
b11000011 !
b00000111 "
b00000111 #
b00000101 $
b00000011 %
b00000111 '
b11 (
b00 )
b00 *
1+
1,
1.
U0
11
b11000011 5
16
b00000111 7
b00000111 8
b00000101 9
b11 :
b00 ;
b00 <
b00000011 =
1>
b00000111 @
1B
UE
1G
b11 I
b00 J
b00 K
b0011 L
1M
1N
1O
0P
b00000111 S
b00000101 T
b00000011 U
b00000011 V
0W
b00000010 X
b00000111 Y
b00000111 Z
U]
b0011 _
1a
1c
b11000011 e
1f
1g
1h
0i
b0111 l
b11000011 m
1n
b11 o
b00 p
b00 q
b0011 r
b11 s
b0011 u
b00000011 v
b11 w
b00 x
b00 y
b00000011 z
1{
0|
b00000111 }
b00000101 !"
b00000111 )"
1+"
0,"
1/"
00"
13"
04"
17"
08"
b00000111 9"
b00000111 :"
b00000101 ;"
0="
b00000010 >"
b11111111 ?"
1@"
0D"
1E"
1G"
1J"
1K"
1L"
1N"
1Q"
0R"
1S"
0U"
0V"
1X"
0Y"
1Z"
1["
0\"
0]"
1_"
0`"
1a"
1b"
0c"
0d"
1f"
0g"
1h"
1i"
0j"
0k"
1m"
0n"
1o"
1p"
0q"
0r"
1t"
0u"
1v"
1w"
b00000111 x"
1y"
1z"
b0011 {"
1!#
U"#
#120000000
0+
0,
06
0>
0a
0{
0+"
0/"
03"
07"
0z"
0!#
#125000000
b10001000 !
b00000101 "
b00000101 #
b00000000 $
b11111000 %
b00000101 &
b00 (
b10 )
1+
1,
0.
00
01
02
b10001000 5
16
b00000101 7
b00000101 8
b00000000 9
b00 :
b10 ;
b11111000 =
1>
b00000101 A
0B
0E
0G
0H
b00 I
b10 J
b1000 L
0N
0O
1P
b00000101 S
b00000000 T
b11111000 U
b11111000 V
b00000101 X
b00000101 Y
b00000101 [
0]
b1000 _
1a
0c
0d
b10001000 e
0g
0h
1i
b1000 l
b10001000 m
0n
b00 o
b10 p
b1000 r
b00 s
b0000 t
b1000 u
b11111000 v
b00 w
b10 x
b11111000 z
1{
1|
b00000101 }
b00000000 !"
b11111000 ""
b11111000 *"
1+"
1,"
1/"
10"
13"
14"
17"
18"
b00000101 :"
b00000000 ;"
b00000101 >"
0A"
1D"
1F"
0G"
0K"
0O"
1R"
1T"
0y"
1z"
b1000 {"
1!#
0"#
#130000000
0+
0,
06
0>
0a
0{
0+"
0/"
03"
07"
0z"
0!#
#135000000
b11000000 !
b11111000 "
b11111000 #
b11111000 $
b00000000 %
b11111000 '
b00 )
1+
1,
1.
11
b11000000 5
16
b11111000 7
b11111000 8
b11111000 9
b00 ;
b00000000 =
1>
b11111000 @
1B
1G
b00 J
b0000 L
1M
1N
1O
0P
b11111000 S
b11111000 T
b00000000 U
b00000000 V
b00000000 X
b11111000 Y
b11111000 Z
b0000 _
1a
1c
b11000000 e
1f
1g
1h
0i
b0111 l
b11000000 m
1n
b00 p
b0000 r
b0000 u
b00000000 v
b00 x
b00000000 z
1{
0|
b11111000 }
b11111000 !"
b11111000 &"
1+"
0,"
b11111000 -"
1/"
00"
13"
04"
17"
08"
b11111000 :"
b11111000 ;"
b00000000 >"
0@"
0D"
0N"
0R"
1U"
1V"
0Y"
0["
1\"
1]"
0`"
0b"
1c"
1d"
0g"
0i"
1j"
1k"
0n"
0p"
1q"
1r"
0u"
0w"
b11111000 x"
1y"
1z"
b0000 {"
1!#
#140000000
0+
0,
06
0>
0a
0{
0+"
0/"
03"
07"
0z"
0!#
#145000000
b00011001 !
b11111101 "
b00000000 #
b11111101 $
b11111101 %
b11111101 &
b10 (
b01 )
b01 *
1+
1,
0.
01
02
b00011001 5
16
b11111101 7
b00000000 8
b11111101 9
b10 :
b01 ;
b01 <
b11111101 =
1>
b11111101 A
0B
0G
0H
b10 I
b01 J
b01 K
b1001 L
0M
0N
0O
1P
0Q
1R
b00000000 S
b11111101 T
b11111001 U
b11111101 V
0W
b11111101 X
b11111101 Y
b11111101 [
b1001 _
1a
0c
0d
b00011001 e
0f
0g
0h
1i
0j
1k
b0000 l
b00011001 m
0n
b10 o
b01 p
b01 q
b1001 r
b01 s
b0001 t
b1001 u
b11111001 v
b10 w
b01 x
b01 y
b11111101 z
1{
1|
b00000000 }
b11111101 !"
b11111101 #"
1+"
1,"
b11111101 ."
1/"
10"
13"
14"
17"
18"
b00000000 :"
b11111101 ;"
0<"
0="
b11111101 >"
b00000000 ?"
1A"
0B"
0C"
1D"
0E"
1F"
0I"
0J"
0L"
0M"
1O"
0P"
0Q"
1R"
0S"
1T"
0U"
0W"
0X"
1Y"
0Z"
1["
0\"
0^"
0_"
1`"
0a"
1b"
0c"
0e"
0f"
1g"
0h"
1i"
0j"
0l"
0m"
1n"
0o"
1p"
0q"
0s"
0t"
1u"
0v"
1w"
0y"
1z"
b1001 {"
1!#
#150000000
0+
0,
06
0>
0a
0{
0+"
0/"
03"
07"
0z"
0!#
#155000000
b11000001 !
b11111101 "
b11111101 #
b11111000 $
b00000001 %
b11111101 '
b01 (
b00 )
b00 *
1+
1,
1.
11
b11000001 5
16
b11111101 7
b11111101 8
b11111000 9
b01 :
b00 ;
b00 <
b00000001 =
1>
b11111101 @
1B
1G
b01 I
b00 J
b00 K
b0001 L
1M
1N
1O
0P
1Q
0R
b11111101 S
b11111000 T
b00000001 U
b00000001 V
0W
b00000101 X
b11111101 Y
b11111101 Z
b0001 _
1a
1c
b11000001 e
1f
1g
1h
0i
1j
0k
b0111 l
b11000001 m
1n
b01 o
b00 p
b00 q
b0001 r
b01 s
b0001 u
b00000001 v
b01 w
b00 x
b00 y
b00000001 z
1{
0|
b11111101 }
b11111000 !"
1+"
0,"
1/"
00"
13"
04"
17"
08"
b11111101 :"
b11111000 ;"
1<"
0="
b00000101 >"
b11111111 ?"
1@"
0A"
1B"
1C"
1D"
1E"
1F"
1I"
1J"
1L"
1M"
1N"
0O"
1P"
1Q"
1R"
1S"
1T"
1U"
1W"
1X"
0Y"
1Z"
0["
1\"
1^"
1_"
0`"
1a"
0b"
1c"
1e"
1f"
0g"
1h"
0i"
1j"
1l"
1m"
0n"
1o"
0p"
1q"
1s"
1t"
0u"
1v"
0w"
b11111101 x"
1y"
1z"
b0001 {"
1!#
#160000000
0+
0,
06
0>
0a
0{
0+"
0/"
03"
07"
0z"
0!#
#165000000
b00101101 !
b00000100 "
b00000111 #
b11111101 $
b00000100 %
b00000100 &
b11 (
b01 )
b10 *
1+
1,
0.
01
02
b00101101 5
16
b00000100 7
b00000111 8
b11111101 9
b11 :
b01 ;
b10 <
b00000100 =
1>
b00000100 A
0B
0G
0H
b11 I
b01 J
b10 K
b1101 L
0M
0N
0O
1P
0Q
1R
b00000111 S
b11111101 T
b11111101 U
b00000100 V
b00000100 X
b00000100 Y
b00000100 [
b1101 _
1a
0c
0d
b00101101 e
0f
0g
0h
1i
0j
1k
b0000 l
b00101101 m
0n
b11 o
b01 p
b10 q
b1101 r
b10 s
b1101 u
b11111101 v
b11 w
b01 x
b10 y
b00000100 z
1{
1|
b00000111 }
b11111101 !"
b00000100 $"
1+"
1,"
1/"
10"
b00000100 2"
13"
14"
17"
18"
b00000111 :"
b11111101 ;"
0<"
b00000100 >"
b11111111 ?"
1A"
0B"
0C"
0D"
1E"
1F"
1G"
0I"
1J"
0K"
1L"
0M"
1O"
0P"
1Q"
1R"
1T"
0U"
0W"
1["
0\"
0^"
1b"
0c"
0e"
1i"
0j"
0l"
1p"
0q"
0s"
1w"
0y"
1z"
b1101 {"
1!#
#170000000
0+
0,
06
0>
0a
0{
0+"
0/"
03"
07"
0z"
0!#
#175000000
b11000010 !
b00000100 "
b00000100 #
b11111000 $
b00000010 %
b00000100 '
b10 (
b00 )
b00 *
1+
1,
1.
11
b11000010 5
16
b00000100 7
b00000100 8
b11111000 9
b10 :
b00 ;
b00 <
b00000010 =
1>
b00000100 @
1B
1G
b10 I
b00 J
b00 K
b0010 L
1M
1N
1O
0P
1Q
0R
b00000100 S
b11111000 T
b00000010 U
b00000010 V
b00001100 X
b00000100 Y
b00000100 Z
b0010 _
1a
1c
b11000010 e
1f
1g
1h
0i
1j
0k
b0111 l
b11000010 m
1n
b10 o
b00 p
b00 q
b0010 r
b10 s
b0010 t
b0010 u
b00000010 v
b10 w
b00 x
b00 y
b00000010 z
1{
0|
b00000100 }
b11111000 !"
b00000100 ("
1+"
0,"
1/"
00"
13"
04"
b00000100 5"
17"
08"
b00000100 :"
b11111000 ;"
1<"
b00001100 >"
b00000111 ?"
0@"
0A"
1B"
1C"
0D"
1E"
1F"
0G"
1I"
1J"
0K"
1L"
1M"
1N"
0O"
1P"
1Q"
1R"
1S"
1T"
0U"
1W"
1X"
1Y"
0Z"
0["
0\"
1^"
0_"
0`"
0a"
0b"
0c"
1e"
0f"
0g"
0h"
0i"
0j"
1l"
0m"
0n"
0o"
0p"
0q"
1s"
0t"
0u"
0v"
0w"
b00000100 x"
1y"
1z"
b0010 {"
1!#
#180000000
0+
0,
06
0>
0a
0{
0+"
0/"
03"
07"
0z"
0!#
